{"count":35109,"page":1,"first":1,"last":30,"hits":30,"carrier":0,"pageCount":100,"Items":[{"Item":{"title":"しゃもじ同心捕物帳2","titleKana":"シャモジドウシントリモノチョウ2","subTitle":"","subTitleKana":"","seriesName":"","seriesNameKana":"","contents":"","author":"井川香四郎","authorKana":"イカワコウシロウ","publisherName":"学研パブリッシング","size":"文庫","isbn":"9784059008064","itemCaption":"","salesDate":"2013年12月10日","itemPrice":670,"listPrice":670,"discountRate":0,"discountPrice":0,"itemUrl":"http://books.rakuten.co.jp/rb/12172489/","affiliateUrl":"","smallImageUrl":"http://thumbnail.image.rakuten.co.jp/@0_mall/book/cabinet/noimage_01.gif?_ex=64x64","mediumImageUrl":"http://thumbnail.image.rakuten.co.jp/@0_mall/book/cabinet/noimage_01.gif?_ex=120x120","largeImageUrl":"http://thumbnail.image.rakuten.co.jp/@0_mall/book/cabinet/noimage_01.gif?_ex=200x200","chirayomiUrl":"","availability":"5","postageFlag":0,"limitedFlag":0,"reviewCount":0,"reviewAverage":"0.0","booksGenreId":"001004008009/001008022008"}},{"Item":{"title":"いじわるな天使","titleKana":"イジワルナテンシ","subTitle":"","subTitleKana":"","seriesName":"アスペクト文庫","seriesNameKana":"","contents":"","author":"穂村弘","authorKana":"ホムラヒロシ","publisherName":"アスペクト","size":"文庫","isbn":"9784757222519","itemCaption":"","salesDate":"2013年11月13日","itemPrice":580,"listPrice":580,"discountRate":0,"discountPrice":0,"itemUrl":"http://books.rakuten.co.jp/rb/12369919/","affiliateUrl":"","smallImageUrl":"http://thumbnail.image.rakuten.co.jp/@0_mall/book/cabinet/noimage_01.gif?_ex=64x64","mediumImageUrl":"http://thumbnail.image.rakuten.co.jp/@0_mall/book/cabinet/noimage_01.gif?_ex=120x120","largeImageUrl":"http://thumbnail.image.rakuten.co.jp/@0_mall/book/cabinet/noimage_01.gif?_ex=200x200","chirayomiUrl":"","availability":"5","postageFlag":0,"limitedFlag":0,"reviewCount":0,"reviewAverage":"0.0","booksGenreId":"001004008009/001008022008"}},{"Item":{"title":"泥棒も木に登る","titleKana":"ドロボウモキニノボル","subTitle":"","subTitleKana":"","seriesName":"徳間文庫","seriesNameKana":"トクマブンコ","contents":"","author":"赤川次郎","authorKana":"アカガワジロウ","publisherName":"（株）徳間書店","size":"文庫","isbn":"9784198937485","itemCaption":"","salesDate":"2013年10月04日","itemPrice":641,"listPrice":641,"discountRate":0,"discountPrice":0,"itemUrl":"http://books.rakuten.co.jp/rb/12419969/","affiliateUrl":"","smallImageUrl":"http://thumbnail.image.rakuten.co.jp/@0_mall/book/cabinet/noimage_01.gif?_ex=64x64","mediumImageUrl":"http://thumbnail.image.rakuten.co.jp/@0_mall/book/cabinet/noimage_01.gif?_ex=120x120","largeImageUrl":"http://thumbnail.image.rakuten.co.jp/@0_mall/book/cabinet/noimage_01.gif?_ex=200x200","chirayomiUrl":"","availability":"5","postageFlag":0,"limitedFlag":0,"reviewCount":0,"reviewAverage":"0.0","booksGenreId":"001004008009/001008022008"}},{"Item":{"title":"古い腕時計","titleKana":"フルイウデドケイ","subTitle":"","subTitleKana":"","seriesName":"徳間文庫","seriesNameKana":"トクマブンコ","contents":"","author":"蘇部健一","authorKana":"ソブケンイチ","publisherName":"（株）徳間書店","size":"文庫","isbn":"9784198937522","itemCaption":"","salesDate":"2013年10月04日","itemPrice":651,"listPrice":651,"discountRate":0,"discountPrice":0,"itemUrl":"http://books.rakuten.co.jp/rb/12419970/","affiliateUrl":"","smallImageUrl":"http://thumbnail.image.rakuten.co.jp/@0_mall/book/cabinet/noimage_01.gif?_ex=64x64","mediumImageUrl":"http://thumbnail.image.rakuten.co.jp/@0_mall/book/cabinet/noimage_01.gif?_ex=120x120","largeImageUrl":"http://thumbnail.image.rakuten.co.jp/@0_mall/book/cabinet/noimage_01.gif?_ex=200x200","chirayomiUrl":"","availability":"5","postageFlag":0,"limitedFlag":0,"reviewCount":0,"reviewAverage":"0.0","booksGenreId":"001004008009/001008022008"}},{"Item":{"title":"刑事の肖像","titleKana":"ケイジノショウゾウ","subTitle":"","subTitleKana":"","seriesName":"徳間文庫","seriesNameKana":"トクマブンコ","contents":"","author":"西村京太郎","authorKana":"ニシムラキョウタロウ","publisherName":"（株）徳間書店","size":"文庫","isbn":"9784198937539","itemCaption":"","salesDate":"2013年10月04日","itemPrice":683,"listPrice":683,"discountRate":0,"discountPrice":0,"itemUrl":"http://books.rakuten.co.jp/rb/12419971/","affiliateUrl":"","smallImageUrl":"http://thumbnail.image.rakuten.co.jp/@0_mall/book/cabinet/noimage_01.gif?_ex=64x64","mediumImageUrl":"http://thumbnail.image.rakuten.co.jp/@0_mall/book/cabinet/noimage_01.gif?_ex=120x120","largeImageUrl":"http://thumbnail.image.rakuten.co.jp/@0_mall/book/cabinet/noimage_01.gif?_ex=200x200","chirayomiUrl":"","availability":"5","postageFlag":0,"limitedFlag":0,"reviewCount":0,"reviewAverage":"0.0","booksGenreId":"001004008009/001008022008"}},{"Item":{"title":"（P［く］2-2）魔術師たちの秋","titleKana":"マジュツシタチノアキ","subTitle":"","subTitleKana":"","seriesName":"","seriesNameKana":"","contents":"","author":"倉数茂","authorKana":"クラカズシゲル","publisherName":"ポプラ社","size":"文庫","isbn":"9784591135297","itemCaption":"","salesDate":"2013年09月30日","itemPrice":651,"listPrice":651,"discountRate":0,"discountPrice":0,"itemUrl":"http://books.rakuten.co.jp/rb/12429330/","affiliateUrl":"","smallImageUrl":"http://thumbnail.image.rakuten.co.jp/@0_mall/book/cabinet/noimage_01.gif?_ex=64x64","mediumImageUrl":"http://thumbnail.image.rakuten.co.jp/@0_mall/book/cabinet/noimage_01.gif?_ex=120x120","largeImageUrl":"http://thumbnail.image.rakuten.co.jp/@0_mall/book/cabinet/noimage_01.gif?_ex=200x200","chirayomiUrl":"","availability":"5","postageFlag":0,"limitedFlag":0,"reviewCount":0,"reviewAverage":"0.0","booksGenreId":"001004008009/001008022008"}},{"Item":{"title":"（P［お］3-3）乙女の翼","titleKana":"オトメノツバサ","subTitle":"","subTitleKana":"","seriesName":"ポプラ文庫ピュアフル","seriesNameKana":"ポプラブンコピュアフル","contents":"","author":"折原みと","authorKana":"オリハラミト","publisherName":"ポプラ社","size":"文庫","isbn":"9784591135891","itemCaption":"","salesDate":"2013年09月30日","itemPrice":672,"listPrice":672,"discountRate":0,"discountPrice":0,"itemUrl":"http://books.rakuten.co.jp/rb/12384614/","affiliateUrl":"","smallImageUrl":"http://thumbnail.image.rakuten.co.jp/@0_mall/book/cabinet/noimage_01.gif?_ex=64x64","mediumImageUrl":"http://thumbnail.image.rakuten.co.jp/@0_mall/book/cabinet/noimage_01.gif?_ex=120x120","largeImageUrl":"http://thumbnail.image.rakuten.co.jp/@0_mall/book/cabinet/noimage_01.gif?_ex=200x200","chirayomiUrl":"","availability":"5","postageFlag":0,"limitedFlag":0,"reviewCount":0,"reviewAverage":"0.0","booksGenreId":"001004008009/001008022008"}},{"Item":{"title":"（P［あ］6-1）いまはむかし","titleKana":"イマハムカシ","subTitle":"","subTitleKana":"","seriesName":"ポプラ文庫ピュアフル","seriesNameKana":"ポプラブンコピュアフル","contents":"","author":"安澄加奈","authorKana":"アズミカナ","publisherName":"ポプラ社","size":"文庫","isbn":"9784591135884","itemCaption":"","salesDate":"2013年09月30日","itemPrice":672,"listPrice":672,"discountRate":0,"discountPrice":0,"itemUrl":"http://books.rakuten.co.jp/rb/12384613/","affiliateUrl":"","smallImageUrl":"http://thumbnail.image.rakuten.co.jp/@0_mall/book/cabinet/noimage_01.gif?_ex=64x64","mediumImageUrl":"http://thumbnail.image.rakuten.co.jp/@0_mall/book/cabinet/noimage_01.gif?_ex=120x120","largeImageUrl":"http://thumbnail.image.rakuten.co.jp/@0_mall/book/cabinet/noimage_01.gif?_ex=200x200","chirayomiUrl":"","availability":"5","postageFlag":0,"limitedFlag":0,"reviewCount":0,"reviewAverage":"0.0","booksGenreId":"001004008009/001008022008"}},{"Item":{"title":"（P［み］4-2）晴れた日は図書館へいこう　ここから始まる物語","titleKana":"ハレタヒハトショカンヘイコウココカラハジマルモノガタリ","subTitle":"","subTitleKana":"","seriesName":"ポプラ文庫ピュアフル","seriesNameKana":"ポプラブンコピュアフル","contents":"","author":"緑川聖司","authorKana":"ミドリカワセイジ","publisherName":"ポプラ社","size":"文庫","isbn":"9784591135853","itemCaption":"","salesDate":"2013年09月30日","itemPrice":651,"listPrice":651,"discountRate":0,"discountPrice":0,"itemUrl":"http://books.rakuten.co.jp/rb/12384612/","affiliateUrl":"","smallImageUrl":"http://thumbnail.image.rakuten.co.jp/@0_mall/book/cabinet/noimage_01.gif?_ex=64x64","mediumImageUrl":"http://thumbnail.image.rakuten.co.jp/@0_mall/book/cabinet/noimage_01.gif?_ex=120x120","largeImageUrl":"http://thumbnail.image.rakuten.co.jp/@0_mall/book/cabinet/noimage_01.gif?_ex=200x200","chirayomiUrl":"","availability":"5","postageFlag":0,"limitedFlag":0,"reviewCount":0,"reviewAverage":"0.0","booksGenreId":"001004008009/001008022008"}},{"Item":{"title":"限定版 AMNESIA〜彷徨うジョーカー〜","titleKana":"ゲンテイバンアムネシアサマヨウジョーカー","subTitle":"","subTitleKana":"","seriesName":"","seriesNameKana":"","contents":"","author":"狩田眞夜/花邑まい","authorKana":"カリタマヤ/ハナムラマイ","publisherName":"フロンティアワークス","size":"文庫","isbn":"9784861346590","itemCaption":"","salesDate":"2013年09月30日","itemPrice":1200,"listPrice":1200,"discountRate":0,"discountPrice":0,"itemUrl":"http://books.rakuten.co.jp/rb/12414257/","affiliateUrl":"","smallImageUrl":"http://thumbnail.image.rakuten.co.jp/@0_mall/book/cabinet/noimage_01.gif?_ex=64x64","mediumImageUrl":"http://thumbnail.image.rakuten.co.jp/@0_mall/book/cabinet/noimage_01.gif?_ex=120x120","largeImageUrl":"http://thumbnail.image.rakuten.co.jp/@0_mall/book/cabinet/noimage_01.gif?_ex=200x200","chirayomiUrl":"","availability":"5","postageFlag":0,"limitedFlag":0,"reviewCount":0,"reviewAverage":"0.0","booksGenreId":"001004008002"}},{"Item":{"title":"AMNESIA〜彷徨うジョーカー〜","titleKana":"アムネシアサマヨウジョーカー","subTitle":"","subTitleKana":"","seriesName":"","seriesNameKana":"","contents":"","author":"狩田眞夜/花邑まい","authorKana":"カリタマヤ/ハナムラマイ","publisherName":"フロンティアワークス","size":"文庫","isbn":"9784861346477","itemCaption":"","salesDate":"2013年09月30日","itemPrice":600,"listPrice":600,"discountRate":0,"discountPrice":0,"itemUrl":"http://books.rakuten.co.jp/rb/12414256/","affiliateUrl":"","smallImageUrl":"http://thumbnail.image.rakuten.co.jp/@0_mall/book/cabinet/noimage_01.gif?_ex=64x64","mediumImageUrl":"http://thumbnail.image.rakuten.co.jp/@0_mall/book/cabinet/noimage_01.gif?_ex=120x120","largeImageUrl":"http://thumbnail.image.rakuten.co.jp/@0_mall/book/cabinet/noimage_01.gif?_ex=200x200","chirayomiUrl":"","availability":"5","postageFlag":0,"limitedFlag":0,"reviewCount":0,"reviewAverage":"0.0","booksGenreId":"001004008002"}},{"Item":{"title":"はなだま人魚","titleKana":"ハナダマニンギョ","subTitle":"","subTitleKana":"","seriesName":"花丸文庫","seriesNameKana":"","contents":"","author":"乃一ミクロ/沙野風結子","authorKana":"ノイチミクロ/サノフユコ","publisherName":"白泉社","size":"文庫","isbn":"9784592851158","itemCaption":"","salesDate":"2013年09月20日","itemPrice":760,"listPrice":760,"discountRate":0,"discountPrice":0,"itemUrl":"http://books.rakuten.co.jp/rb/12429333/","affiliateUrl":"","smallImageUrl":"http://thumbnail.image.rakuten.co.jp/@0_mall/book/cabinet/noimage_01.gif?_ex=64x64","mediumImageUrl":"http://thumbnail.image.rakuten.co.jp/@0_mall/book/cabinet/noimage_01.gif?_ex=120x120","largeImageUrl":"http://thumbnail.image.rakuten.co.jp/@0_mall/book/cabinet/noimage_01.gif?_ex=200x200","chirayomiUrl":"","availability":"5","postageFlag":0,"limitedFlag":0,"reviewCount":0,"reviewAverage":"0.0","booksGenreId":"001004008009/001008022008/001021001002"}},{"Item":{"title":"閃烈の神なる御手2","titleKana":"センレツノヘカトンケイル2","subTitle":"","subTitleKana":"","seriesName":"","seriesNameKana":"","contents":"","author":"早矢塚かつや/たろプン","authorKana":"ハヤヅカカツヤ/タロプン","publisherName":"一迅社","size":"文庫","isbn":"9784758044882","itemCaption":"","salesDate":"2013年09月20日","itemPrice":670,"listPrice":670,"discountRate":0,"discountPrice":0,"itemUrl":"http://books.rakuten.co.jp/rb/12429328/","affiliateUrl":"","smallImageUrl":"http://thumbnail.image.rakuten.co.jp/@0_mall/book/cabinet/noimage_01.gif?_ex=64x64","mediumImageUrl":"http://thumbnail.image.rakuten.co.jp/@0_mall/book/cabinet/noimage_01.gif?_ex=120x120","largeImageUrl":"http://thumbnail.image.rakuten.co.jp/@0_mall/book/cabinet/noimage_01.gif?_ex=200x200","chirayomiUrl":"","availability":"5","postageFlag":0,"limitedFlag":0,"reviewCount":0,"reviewAverage":"0.0","booksGenreId":"001004008009/001008022008"}},{"Item":{"title":"辻堂さんの純愛ロード(3)","titleKana":"ツジドウサンノジュンアイロード3","subTitle":"","subTitleKana":"","seriesName":"","seriesNameKana":"","contents":"","author":"御門智/みなとカーニバル","authorKana":"ミカドサトシ/ミナトカーニバル","publisherName":"一迅社","size":"文庫","isbn":"9784758044790","itemCaption":"","salesDate":"2013年09月20日","itemPrice":620,"listPrice":620,"discountRate":0,"discountPrice":0,"itemUrl":"http://books.rakuten.co.jp/rb/12429321/","affiliateUrl":"","smallImageUrl":"http://thumbnail.image.rakuten.co.jp/@0_mall/book/cabinet/noimage_01.gif?_ex=64x64","mediumImageUrl":"http://thumbnail.image.rakuten.co.jp/@0_mall/book/cabinet/noimage_01.gif?_ex=120x120","largeImageUrl":"http://thumbnail.image.rakuten.co.jp/@0_mall/book/cabinet/noimage_01.gif?_ex=200x200","chirayomiUrl":"","availability":"5","postageFlag":0,"limitedFlag":0,"reviewCount":0,"reviewAverage":"0.0","booksGenreId":"001004008009/001008022008"}},{"Item":{"title":"ティル・ナ・ノグの棺の騎士 (仮)","titleKana":"ティルナノグノヒツギノキシカリ","subTitle":"","subTitleKana":"","seriesName":"","seriesNameKana":"","contents":"","author":"紫月恵里/くまの柚子","authorKana":"シヅキエリ/クマノユズコ","publisherName":"一迅社","size":"文庫","isbn":"9784758044837","itemCaption":"","salesDate":"2013年09月20日","itemPrice":620,"listPrice":620,"discountRate":0,"discountPrice":0,"itemUrl":"http://books.rakuten.co.jp/rb/12429325/","affiliateUrl":"","smallImageUrl":"http://thumbnail.image.rakuten.co.jp/@0_mall/book/cabinet/noimage_01.gif?_ex=64x64","mediumImageUrl":"http://thumbnail.image.rakuten.co.jp/@0_mall/book/cabinet/noimage_01.gif?_ex=120x120","largeImageUrl":"http://thumbnail.image.rakuten.co.jp/@0_mall/book/cabinet/noimage_01.gif?_ex=200x200","chirayomiUrl":"","availability":"5","postageFlag":0,"limitedFlag":0,"reviewCount":0,"reviewAverage":"0.0","booksGenreId":"001004008009/001008022008"}},{"Item":{"title":"千の魔剣と盾の乙女11","titleKana":"サウザンドトイージス11","subTitle":"","subTitleKana":"","seriesName":"","seriesNameKana":"","contents":"","author":"川口士/アシオ","authorKana":"カワグチツカサ/アシオ","publisherName":"一迅社","size":"文庫","isbn":"9784758044820","itemCaption":"","salesDate":"2013年09月20日","itemPrice":670,"listPrice":670,"discountRate":0,"discountPrice":0,"itemUrl":"http://books.rakuten.co.jp/rb/12429324/","affiliateUrl":"","smallImageUrl":"http://thumbnail.image.rakuten.co.jp/@0_mall/book/cabinet/noimage_01.gif?_ex=64x64","mediumImageUrl":"http://thumbnail.image.rakuten.co.jp/@0_mall/book/cabinet/noimage_01.gif?_ex=120x120","largeImageUrl":"http://thumbnail.image.rakuten.co.jp/@0_mall/book/cabinet/noimage_01.gif?_ex=200x200","chirayomiUrl":"","availability":"5","postageFlag":0,"limitedFlag":0,"reviewCount":0,"reviewAverage":"0.0","booksGenreId":"001004008009/001008022008"}},{"Item":{"title":"色街淫花","titleKana":"イロマチインカ","subTitle":"","subTitleKana":"","seriesName":"花丸文庫","seriesNameKana":"","contents":"","author":"小山田あみ/矢城米花","authorKana":"オヤマダアミ/ヤシロヨネカ","publisherName":"白泉社","size":"文庫","isbn":"9784592851141","itemCaption":"","salesDate":"2013年09月20日","itemPrice":740,"listPrice":740,"discountRate":0,"discountPrice":0,"itemUrl":"http://books.rakuten.co.jp/rb/12429332/","affiliateUrl":"","smallImageUrl":"http://thumbnail.image.rakuten.co.jp/@0_mall/book/cabinet/noimage_01.gif?_ex=64x64","mediumImageUrl":"http://thumbnail.image.rakuten.co.jp/@0_mall/book/cabinet/noimage_01.gif?_ex=120x120","largeImageUrl":"http://thumbnail.image.rakuten.co.jp/@0_mall/book/cabinet/noimage_01.gif?_ex=200x200","chirayomiUrl":"","availability":"5","postageFlag":0,"limitedFlag":0,"reviewCount":0,"reviewAverage":"0.0","booksGenreId":"001004008009/001008022008/001021001002"}},{"Item":{"title":"俺がお嬢様学校に「庶民サンプル」として拉致られた件7","titleKana":"オレガオジョウサマガッコウニショミンサンプルトシテラチラレタケン7","subTitle":"","subTitleKana":"","seriesName":"","seriesNameKana":"","contents":"","author":"七月隆文/閏月戈","authorKana":"ナナツキタカフミ/ウルウゲッカ","publisherName":"一迅社","size":"文庫","isbn":"9784758044639","itemCaption":"","salesDate":"2013年09月20日","itemPrice":650,"listPrice":650,"discountRate":0,"discountPrice":0,"itemUrl":"http://books.rakuten.co.jp/rb/12429319/","affiliateUrl":"","smallImageUrl":"http://thumbnail.image.rakuten.co.jp/@0_mall/book/cabinet/noimage_01.gif?_ex=64x64","mediumImageUrl":"http://thumbnail.image.rakuten.co.jp/@0_mall/book/cabinet/noimage_01.gif?_ex=120x120","largeImageUrl":"http://thumbnail.image.rakuten.co.jp/@0_mall/book/cabinet/noimage_01.gif?_ex=200x200","chirayomiUrl":"","availability":"5","postageFlag":0,"limitedFlag":0,"reviewCount":0,"reviewAverage":"0.0","booksGenreId":"001004008009/001008022008"}},{"Item":{"title":"なにはなくともお世継ぎを！3","titleKana":"ナニハナクトモオヨツギヲ3","subTitle":"","subTitleKana":"","seriesName":"","seriesNameKana":"","contents":"","author":"川波無人/桑島黎音","authorKana":"カワナミムジン/クワシマレイン","publisherName":"一迅社","size":"文庫","isbn":"9784758044806","itemCaption":"","salesDate":"2013年09月20日","itemPrice":650,"listPrice":650,"discountRate":0,"discountPrice":0,"itemUrl":"http://books.rakuten.co.jp/rb/12429322/","affiliateUrl":"","smallImageUrl":"http://thumbnail.image.rakuten.co.jp/@0_mall/book/cabinet/noimage_01.gif?_ex=64x64","mediumImageUrl":"http://thumbnail.image.rakuten.co.jp/@0_mall/book/cabinet/noimage_01.gif?_ex=120x120","largeImageUrl":"http://thumbnail.image.rakuten.co.jp/@0_mall/book/cabinet/noimage_01.gif?_ex=200x200","chirayomiUrl":"","availability":"5","postageFlag":0,"limitedFlag":0,"reviewCount":0,"reviewAverage":"0.0","booksGenreId":"001004008009/001008022008"}},{"Item":{"title":"俺がお嬢様学校に「庶民サンプル」として拉致られた件7 ドラマCD付特装版","titleKana":"オレガオジョウサマガッコウニショミンサンプルトシテラチラレタケン7　ドラマシーディーツキトクソウバン","subTitle":"","subTitleKana":"","seriesName":"","seriesNameKana":"","contents":"","author":"七月隆文/閏月戈","authorKana":"ナナツキタカフミ/ウルウゲッカ","publisherName":"一迅社","size":"文庫","isbn":"9784758044646","itemCaption":"","salesDate":"2013年09月20日","itemPrice":1995,"listPrice":1995,"discountRate":0,"discountPrice":0,"itemUrl":"http://books.rakuten.co.jp/rb/12429320/","affiliateUrl":"","smallImageUrl":"http://thumbnail.image.rakuten.co.jp/@0_mall/book/cabinet/noimage_01.gif?_ex=64x64","mediumImageUrl":"http://thumbnail.image.rakuten.co.jp/@0_mall/book/cabinet/noimage_01.gif?_ex=120x120","largeImageUrl":"http://thumbnail.image.rakuten.co.jp/@0_mall/book/cabinet/noimage_01.gif?_ex=200x200","chirayomiUrl":"","availability":"5","postageFlag":1,"limitedFlag":0,"reviewCount":0,"reviewAverage":"0.0","booksGenreId":"001004008009/001008022008"}},{"Item":{"title":"銀閃の戦乙女と封門の姫4","titleKana":"ギンセンノヴァルキュリアトフウモンノヒメ4","subTitle":"","subTitleKana":"","seriesName":"","seriesNameKana":"","contents":"","author":"瀬尾つかさ/美弥月いつか","authorKana":"セオツカサ/ミヤツキイツカ","publisherName":"一迅社","size":"文庫","isbn":"9784758044813","itemCaption":"","salesDate":"2013年09月20日","itemPrice":670,"listPrice":670,"discountRate":0,"discountPrice":0,"itemUrl":"http://books.rakuten.co.jp/rb/12429323/","affiliateUrl":"","smallImageUrl":"http://thumbnail.image.rakuten.co.jp/@0_mall/book/cabinet/noimage_01.gif?_ex=64x64","mediumImageUrl":"http://thumbnail.image.rakuten.co.jp/@0_mall/book/cabinet/noimage_01.gif?_ex=120x120","largeImageUrl":"http://thumbnail.image.rakuten.co.jp/@0_mall/book/cabinet/noimage_01.gif?_ex=200x200","chirayomiUrl":"","availability":"5","postageFlag":0,"limitedFlag":0,"reviewCount":0,"reviewAverage":"0.0","booksGenreId":"001004008009/001008022008"}},{"Item":{"title":"とらわれ陰陽師〜還して欲しくば京を救え!?〜","titleKana":"トラワレオンミョウジカエシテホシクバキョウヲスクエ","subTitle":"","subTitleKana":"","seriesName":"","seriesNameKana":"","contents":"","author":"御園るしあ/サマミヤアカザ","authorKana":"ミソノルシア/サマミヤアカザ","publisherName":"一迅社","size":"文庫","isbn":"9784758044868","itemCaption":"","salesDate":"2013年09月20日","itemPrice":590,"listPrice":590,"discountRate":0,"discountPrice":0,"itemUrl":"http://books.rakuten.co.jp/rb/12429327/","affiliateUrl":"","smallImageUrl":"http://thumbnail.image.rakuten.co.jp/@0_mall/book/cabinet/noimage_01.gif?_ex=64x64","mediumImageUrl":"http://thumbnail.image.rakuten.co.jp/@0_mall/book/cabinet/noimage_01.gif?_ex=120x120","largeImageUrl":"http://thumbnail.image.rakuten.co.jp/@0_mall/book/cabinet/noimage_01.gif?_ex=200x200","chirayomiUrl":"","availability":"5","postageFlag":0,"limitedFlag":0,"reviewCount":0,"reviewAverage":"0.0","booksGenreId":"001004008009/001008022008"}},{"Item":{"title":"蜜猟区","titleKana":"ミツリョウク","subTitle":"","subTitleKana":"","seriesName":"花丸文庫","seriesNameKana":"","contents":"","author":"小路龍流/今城けい","authorKana":"コウジタツル/イマジョウケイ","publisherName":"白泉社","size":"文庫","isbn":"9784592851134","itemCaption":"","salesDate":"2013年09月20日","itemPrice":760,"listPrice":760,"discountRate":0,"discountPrice":0,"itemUrl":"http://books.rakuten.co.jp/rb/12429331/","affiliateUrl":"","smallImageUrl":"http://thumbnail.image.rakuten.co.jp/@0_mall/book/cabinet/noimage_01.gif?_ex=64x64","mediumImageUrl":"http://thumbnail.image.rakuten.co.jp/@0_mall/book/cabinet/noimage_01.gif?_ex=120x120","largeImageUrl":"http://thumbnail.image.rakuten.co.jp/@0_mall/book/cabinet/noimage_01.gif?_ex=200x200","chirayomiUrl":"","availability":"5","postageFlag":0,"limitedFlag":0,"reviewCount":0,"reviewAverage":"0.0","booksGenreId":"001004008009/001008022008/001021001002"}},{"Item":{"title":"女王様の料理人 ?美食の悦楽?","titleKana":"ジョオウサマノリョウリニンビショクノエツラク","subTitle":"","subTitleKana":"","seriesName":"花丸文庫","seriesNameKana":"","contents":"","author":"陸裕千景子/水上ルイ","authorKana":"リクユチカコ/ミナカミルイ","publisherName":"白泉社","size":"文庫","isbn":"9784592877134","itemCaption":"","salesDate":"2013年09月20日","itemPrice":690,"listPrice":690,"discountRate":0,"discountPrice":0,"itemUrl":"http://books.rakuten.co.jp/rb/12429334/","affiliateUrl":"","smallImageUrl":"http://thumbnail.image.rakuten.co.jp/@0_mall/book/cabinet/noimage_01.gif?_ex=64x64","mediumImageUrl":"http://thumbnail.image.rakuten.co.jp/@0_mall/book/cabinet/noimage_01.gif?_ex=120x120","largeImageUrl":"http://thumbnail.image.rakuten.co.jp/@0_mall/book/cabinet/noimage_01.gif?_ex=200x200","chirayomiUrl":"","availability":"5","postageFlag":0,"limitedFlag":0,"reviewCount":0,"reviewAverage":"0.0","booksGenreId":"001004008009/001008022008/001021001002"}},{"Item":{"title":"女王サマは優雅なご稼業!?〜桃宮は危険な恋に満ちて〜","titleKana":"ジョオウサマハユウガナゴカギョウトウキュウハキケンナコイニミチテ","subTitle":"","subTitleKana":"","seriesName":"","seriesNameKana":"","contents":"","author":"めぐみ和季/サカノ景子","authorKana":"メグミカズキ/サカノケイコ","publisherName":"一迅社","size":"文庫","isbn":"9784758044844","itemCaption":"","salesDate":"2013年09月20日","itemPrice":590,"listPrice":590,"discountRate":0,"discountPrice":0,"itemUrl":"http://books.rakuten.co.jp/rb/12429326/","affiliateUrl":"","smallImageUrl":"http://thumbnail.image.rakuten.co.jp/@0_mall/book/cabinet/noimage_01.gif?_ex=64x64","mediumImageUrl":"http://thumbnail.image.rakuten.co.jp/@0_mall/book/cabinet/noimage_01.gif?_ex=120x120","largeImageUrl":"http://thumbnail.image.rakuten.co.jp/@0_mall/book/cabinet/noimage_01.gif?_ex=200x200","chirayomiUrl":"","availability":"5","postageFlag":0,"limitedFlag":0,"reviewCount":0,"reviewAverage":"0.0","booksGenreId":"001004008009/001008022008"}},{"Item":{"title":"魔王が家賃を払ってくれない 6","titleKana":"マオウガヤチンヲハラッテクレナイ 6","subTitle":"","subTitleKana":"","seriesName":"ガガガ文庫","seriesNameKana":"ガガガブンコ","contents":"","author":"伊藤ヒロ/魚","authorKana":"イトウヒロ/サカナ","publisherName":"小学館","size":"文庫","isbn":"9784094514360","itemCaption":"","salesDate":"2013年09月18日","itemPrice":600,"listPrice":600,"discountRate":0,"discountPrice":0,"itemUrl":"http://books.rakuten.co.jp/rb/12427661/","affiliateUrl":"","smallImageUrl":"http://thumbnail.image.rakuten.co.jp/@0_mall/book/cabinet/noimage_01.gif?_ex=64x64","mediumImageUrl":"http://thumbnail.image.rakuten.co.jp/@0_mall/book/cabinet/noimage_01.gif?_ex=120x120","largeImageUrl":"http://thumbnail.image.rakuten.co.jp/@0_mall/book/cabinet/noimage_01.gif?_ex=200x200","chirayomiUrl":"","availability":"5","postageFlag":0,"limitedFlag":0,"reviewCount":0,"reviewAverage":"0.0","booksGenreId":"001004008009/001008022008/001017005001"}},{"Item":{"title":"英国貴族に愛されて〜求婚は謎解きのあとで〜","titleKana":"英国貴族に愛されて〜求婚は謎解きのあとで〜","subTitle":"","subTitleKana":"","seriesName":"ガッシュ文庫","seriesNameKana":"","contents":"","author":"水瀬結月/北沢きょう","authorKana":"","publisherName":"海王社","size":"文庫","isbn":"9784796404907","itemCaption":"","salesDate":"2013年09月18日","itemPrice":650,"listPrice":650,"discountRate":0,"discountPrice":0,"itemUrl":"http://books.rakuten.co.jp/rb/12429437/","affiliateUrl":"","smallImageUrl":"http://thumbnail.image.rakuten.co.jp/@0_mall/book/cabinet/noimage_01.gif?_ex=64x64","mediumImageUrl":"http://thumbnail.image.rakuten.co.jp/@0_mall/book/cabinet/noimage_01.gif?_ex=120x120","largeImageUrl":"http://thumbnail.image.rakuten.co.jp/@0_mall/book/cabinet/noimage_01.gif?_ex=200x200","chirayomiUrl":"","availability":"5","postageFlag":0,"limitedFlag":0,"reviewCount":0,"reviewAverage":"0.0","booksGenreId":"001004008009/001021001009"}},{"Item":{"title":"箱入り姫の嫁入り（2）（仮）","titleKana":"箱入り姫の嫁入り（2）（仮）","subTitle":"","subTitleKana":"","seriesName":"ガッシュ文庫","seriesNameKana":"","contents":"","author":"真先ゆみ/六芦かえで","authorKana":"","publisherName":"海王社","size":"文庫","isbn":"9784796404891","itemCaption":"","salesDate":"2013年09月18日","itemPrice":650,"listPrice":650,"discountRate":0,"discountPrice":0,"itemUrl":"http://books.rakuten.co.jp/rb/12429436/","affiliateUrl":"","smallImageUrl":"http://thumbnail.image.rakuten.co.jp/@0_mall/book/cabinet/noimage_01.gif?_ex=64x64","mediumImageUrl":"http://thumbnail.image.rakuten.co.jp/@0_mall/book/cabinet/noimage_01.gif?_ex=120x120","largeImageUrl":"http://thumbnail.image.rakuten.co.jp/@0_mall/book/cabinet/noimage_01.gif?_ex=200x200","chirayomiUrl":"","availability":"5","postageFlag":0,"limitedFlag":0,"reviewCount":0,"reviewAverage":"0.0","booksGenreId":"001004008009/001021001009"}},{"Item":{"title":"描くのは愛","titleKana":"描くのは愛","subTitle":"","subTitleKana":"","seriesName":"ショコラ文庫","seriesNameKana":"","contents":"","author":"剛　しいら/朝南かつみ","authorKana":"","publisherName":"心交社","size":"文庫","isbn":"9784778115258","itemCaption":"","salesDate":"2013年09月18日","itemPrice":690,"listPrice":690,"discountRate":0,"discountPrice":0,"itemUrl":"http://books.rakuten.co.jp/rb/12429440/","affiliateUrl":"","smallImageUrl":"http://thumbnail.image.rakuten.co.jp/@0_mall/book/cabinet/noimage_01.gif?_ex=64x64","mediumImageUrl":"http://thumbnail.image.rakuten.co.jp/@0_mall/book/cabinet/noimage_01.gif?_ex=120x120","largeImageUrl":"http://thumbnail.image.rakuten.co.jp/@0_mall/book/cabinet/noimage_01.gif?_ex=200x200","chirayomiUrl":"","availability":"5","postageFlag":0,"limitedFlag":0,"reviewCount":0,"reviewAverage":"0.0","booksGenreId":"001004008009"}},{"Item":{"title":"やましいゲームの作り方 3","titleKana":"ヤマシイゲームノツクリカタ 3","subTitle":"","subTitleKana":"","seriesName":"ガガガ文庫","seriesNameKana":"ガガガブンコ","contents":"","author":"荒川工/nauribon","authorKana":"アラカワタクミ/ナウリボン","publisherName":"小学館","size":"文庫","isbn":"9784094514384","itemCaption":"","salesDate":"2013年09月18日","itemPrice":600,"listPrice":600,"discountRate":0,"discountPrice":0,"itemUrl":"http://books.rakuten.co.jp/rb/12427663/","affiliateUrl":"","smallImageUrl":"http://thumbnail.image.rakuten.co.jp/@0_mall/book/cabinet/noimage_01.gif?_ex=64x64","mediumImageUrl":"http://thumbnail.image.rakuten.co.jp/@0_mall/book/cabinet/noimage_01.gif?_ex=120x120","largeImageUrl":"http://thumbnail.image.rakuten.co.jp/@0_mall/book/cabinet/noimage_01.gif?_ex=200x200","chirayomiUrl":"","availability":"5","postageFlag":0,"limitedFlag":0,"reviewCount":0,"reviewAverage":"0.0","booksGenreId":"001004008009/001008022008/001017005001"}}],"GenreInformation":[]}