{"count":1939,"page":1,"first":1,"last":30,"hits":30,"carrier":0,"pageCount":65,"Items":[{"Item":{"title":"万葉歌とめぐる野歩き植物ガイド（夏〜初秋）","titleKana":"マンヨウカ ト メグル ノアルキ ショクブツ ガイド","subTitle":"","subTitleKana":"","seriesName":"","seriesNameKana":"","contents":"","author":"山田隆彦/山津京子","authorKana":"ヤマダ,タカヒコ/ヤマツ,キョウコ","publisherName":"太郎次郎社","size":"図鑑","isbn":"9784811807621","itemCaption":"夏〜初秋に花期を迎える万葉植物４７種と、それらと関わりの深い身近な植物１６５種を掲載。","salesDate":"2013年08月05日","itemPrice":1890,"listPrice":1890,"discountRate":0,"discountPrice":0,"itemUrl":"http://books.rakuten.co.jp/rb/12406190/","affiliateUrl":"","smallImageUrl":"http://thumbnail.image.rakuten.co.jp/@0_mall/book/cabinet/7621/9784811807621.jpg?_ex=64x64","mediumImageUrl":"http://thumbnail.image.rakuten.co.jp/@0_mall/book/cabinet/7621/9784811807621.jpg?_ex=120x120","largeImageUrl":"http://thumbnail.image.rakuten.co.jp/@0_mall/book/cabinet/7621/9784811807621.jpg?_ex=200x200","chirayomiUrl":"","availability":"1","postageFlag":1,"limitedFlag":0,"reviewCount":0,"reviewAverage":"0.0","booksGenreId":"001012006"}},{"Item":{"title":"ダンゴムシの本","titleKana":"ダンゴムシ ノ ホン","subTitle":"まるまる一冊だんごむしガイド〜探し方、飼い方、生態まで","subTitleKana":"マルマル イツサツ ダンゴムシ ガイド サガシカタ カイカタ セイタイ マデ","seriesName":"","seriesNameKana":"","contents":"","author":"奥山　風太郎/みのじ","authorKana":"オクヤマ,フウタロウ/ミノジ","publisherName":"DU　BOOKS","size":"図鑑","isbn":"9784925064842","itemCaption":"","salesDate":"2013年08月02日","itemPrice":1890,"listPrice":1890,"discountRate":0,"discountPrice":0,"itemUrl":"http://books.rakuten.co.jp/rb/12388231/","affiliateUrl":"","smallImageUrl":"http://thumbnail.image.rakuten.co.jp/@0_mall/book/cabinet/4842/9784925064842.jpg?_ex=64x64","mediumImageUrl":"http://thumbnail.image.rakuten.co.jp/@0_mall/book/cabinet/4842/9784925064842.jpg?_ex=120x120","largeImageUrl":"http://thumbnail.image.rakuten.co.jp/@0_mall/book/cabinet/4842/9784925064842.jpg?_ex=200x200","chirayomiUrl":"","availability":"1","postageFlag":1,"limitedFlag":0,"reviewCount":0,"reviewAverage":"0.0","booksGenreId":"001012007"}},{"Item":{"title":"戦後初期の小型記念スタンプ集","titleKana":"センゴ ショキ ノ コガタ キネン スタンプシュウ","subTitle":"１９４７〜１９５２","subTitleKana":"センキュウヒャク シジュウシチ センキュウヒャク ゴジュウニ","seriesName":"","seriesNameKana":"","contents":"","author":"","authorKana":"","publisherName":"日本郵趣出版","size":"図鑑","isbn":"9784889637571","itemCaption":"","salesDate":"2013年08月","itemPrice":2000,"listPrice":2000,"discountRate":0,"discountPrice":0,"itemUrl":"http://books.rakuten.co.jp/rb/12428876/","affiliateUrl":"","smallImageUrl":"http://thumbnail.image.rakuten.co.jp/@0_mall/book/cabinet/7571/9784889637571.jpg?_ex=64x64","mediumImageUrl":"http://thumbnail.image.rakuten.co.jp/@0_mall/book/cabinet/7571/9784889637571.jpg?_ex=120x120","largeImageUrl":"http://thumbnail.image.rakuten.co.jp/@0_mall/book/cabinet/7571/9784889637571.jpg?_ex=200x200","chirayomiUrl":"","availability":"1","postageFlag":1,"limitedFlag":0,"reviewCount":0,"reviewAverage":"0.0","booksGenreId":"001006019004"}},{"Item":{"title":"ずかんいろいろな星","titleKana":"ズカン イロイロナ ホシ","subTitle":"見ながら学習調べてなっとく","subTitleKana":"ミナガラ ガクシュウ シラベテ ナットク","seriesName":"","seriesNameKana":"","contents":"","author":"沼沢茂美/脇屋奈々代","authorKana":"ヌマザワ,シゲミ/ワキヤ,ナナヨ","publisherName":"技術評論社","size":"図鑑","isbn":"9784774157825","itemCaption":"太陽系にある星から遠い宇宙まで、いろいろな星や天体をすべて紹介！宇宙の果てにはどんな天体がある？迫力満点の写真でその素顔に迫る！親子で星空を眺めるときの決定版！","salesDate":"2013年08月","itemPrice":2814,"listPrice":2814,"discountRate":0,"discountPrice":0,"itemUrl":"http://books.rakuten.co.jp/rb/12353385/","affiliateUrl":"","smallImageUrl":"http://thumbnail.image.rakuten.co.jp/@0_mall/book/cabinet/7825/9784774157825.jpg?_ex=64x64","mediumImageUrl":"http://thumbnail.image.rakuten.co.jp/@0_mall/book/cabinet/7825/9784774157825.jpg?_ex=120x120","largeImageUrl":"http://thumbnail.image.rakuten.co.jp/@0_mall/book/cabinet/7825/9784774157825.jpg?_ex=200x200","chirayomiUrl":"","availability":"1","postageFlag":1,"limitedFlag":0,"reviewCount":0,"reviewAverage":"0.0","booksGenreId":"001003006"}},{"Item":{"title":"宇宙探査大図鑑","titleKana":"ウチュウ タンサ ダイズカン","subTitle":"未知の世界を探る！","subTitleKana":"ミチ ノ セカイ オ サグル","seriesName":"","seriesNameKana":"","contents":"","author":"的川泰宣","authorKana":"マトガワ,ヤスノリ","publisherName":"PHP研究所","size":"図鑑","isbn":"9784569783345","itemCaption":"","salesDate":"2013年08月01日","itemPrice":2940,"listPrice":2940,"discountRate":0,"discountPrice":0,"itemUrl":"http://books.rakuten.co.jp/rb/12406176/","affiliateUrl":"","smallImageUrl":"http://thumbnail.image.rakuten.co.jp/@0_mall/book/cabinet/3345/9784569783345.jpg?_ex=64x64","mediumImageUrl":"http://thumbnail.image.rakuten.co.jp/@0_mall/book/cabinet/3345/9784569783345.jpg?_ex=120x120","largeImageUrl":"http://thumbnail.image.rakuten.co.jp/@0_mall/book/cabinet/3345/9784569783345.jpg?_ex=200x200","chirayomiUrl":"","availability":"1","postageFlag":1,"limitedFlag":0,"reviewCount":0,"reviewAverage":"0.0","booksGenreId":"001015"}},{"Item":{"title":"地獄大図鑑","titleKana":"ジゴク ダイズカン","subTitle":"こわいけど知りたい！","subTitleKana":"コワイ ケド シリタイ","seriesName":"","seriesNameKana":"","contents":"","author":"鷹巣純","authorKana":"タカス,ジュン","publisherName":"PHP研究所","size":"図鑑","isbn":"9784569783314","itemCaption":"","salesDate":"2013年08月01日","itemPrice":2940,"listPrice":2940,"discountRate":0,"discountPrice":0,"itemUrl":"http://books.rakuten.co.jp/rb/12406177/","affiliateUrl":"","smallImageUrl":"http://thumbnail.image.rakuten.co.jp/@0_mall/book/cabinet/3314/9784569783314.jpg?_ex=64x64","mediumImageUrl":"http://thumbnail.image.rakuten.co.jp/@0_mall/book/cabinet/3314/9784569783314.jpg?_ex=120x120","largeImageUrl":"http://thumbnail.image.rakuten.co.jp/@0_mall/book/cabinet/3314/9784569783314.jpg?_ex=200x200","chirayomiUrl":"","availability":"1","postageFlag":1,"limitedFlag":0,"reviewCount":0,"reviewAverage":"0.0","booksGenreId":"001003006"}},{"Item":{"title":"パノラマふしぎ探検図鑑","titleKana":"パノラマ フシギ タンケン ズカン","subTitle":"めくって広がる大迫力のパノラマ図鑑！","subTitleKana":"メクッテ ヒロガル ダイハクリョク ノ パノラマ ズカン","seriesName":"","seriesNameKana":"","contents":"","author":"成美堂出版株式会社","authorKana":"セイビドウ シュッパン カブシキ ガイシャ","publisherName":"成美堂出版","size":"図鑑","isbn":"9784415314327","itemCaption":"めくって広がる大迫力のパノラマ図鑑！すごい乗り物や動物・ふしぎな自然のしくみやひみつがわかる！！","salesDate":"2013年08月","itemPrice":1995,"listPrice":1995,"discountRate":0,"discountPrice":0,"itemUrl":"http://books.rakuten.co.jp/rb/12388685/","affiliateUrl":"","smallImageUrl":"http://thumbnail.image.rakuten.co.jp/@0_mall/book/cabinet/4327/9784415314327.jpg?_ex=64x64","mediumImageUrl":"http://thumbnail.image.rakuten.co.jp/@0_mall/book/cabinet/4327/9784415314327.jpg?_ex=120x120","largeImageUrl":"http://thumbnail.image.rakuten.co.jp/@0_mall/book/cabinet/4327/9784415314327.jpg?_ex=200x200","chirayomiUrl":"http://books.rakuten.co.jp/chirayomi/index.phtml?id=7r7l1z1k8w&path=81/u1o1c8s&iid=9784415314327","availability":"1","postageFlag":1,"limitedFlag":0,"reviewCount":0,"reviewAverage":"0.0","booksGenreId":"001003006"}},{"Item":{"title":"ピラミッドの建て方","titleKana":"ピラミッド ノ タテカタ","subTitle":"「もしも？」の図鑑","subTitleKana":"モシモ ノ ズカン","seriesName":"","seriesNameKana":"","contents":"","author":"柏木裕之/米澤貴紀","authorKana":"カシワギ,ヒロユキ/ヨネザワ,タカノリ","publisherName":"実業之日本社","size":"図鑑","isbn":"9784408454443","itemCaption":"世界と日本の歴史的建造物の構造がよくわかる空想科学図鑑。","salesDate":"2013年08月","itemPrice":945,"listPrice":945,"discountRate":0,"discountPrice":0,"itemUrl":"http://books.rakuten.co.jp/rb/12418543/","affiliateUrl":"","smallImageUrl":"http://thumbnail.image.rakuten.co.jp/@0_mall/book/cabinet/4443/9784408454443.jpg?_ex=64x64","mediumImageUrl":"http://thumbnail.image.rakuten.co.jp/@0_mall/book/cabinet/4443/9784408454443.jpg?_ex=120x120","largeImageUrl":"http://thumbnail.image.rakuten.co.jp/@0_mall/book/cabinet/4443/9784408454443.jpg?_ex=200x200","chirayomiUrl":"","availability":"1","postageFlag":0,"limitedFlag":0,"reviewCount":0,"reviewAverage":"0.0","booksGenreId":"001003006"}},{"Item":{"title":"電気の図鑑","titleKana":"デンキ ノ ズカン","subTitle":"","subTitleKana":"","seriesName":"まなびのずかん","seriesNameKana":"マナビ ノ ズカン","contents":"","author":"理科教育研究会（２０１３）","authorKana":"リカ キョウイク ケンキュウカイ(2013)","publisherName":"技術評論社","size":"図鑑","isbn":"9784774158150","itemCaption":"まるごと一冊電気のしくみ。電流・電圧って何の単位？交流と直流の違いは？オームの法則ってどんな法則？電気について基礎から応用までしっかり学べます。","salesDate":"2013年08月","itemPrice":2814,"listPrice":2814,"discountRate":0,"discountPrice":0,"itemUrl":"http://books.rakuten.co.jp/rb/12360856/","affiliateUrl":"","smallImageUrl":"http://thumbnail.image.rakuten.co.jp/@0_mall/book/cabinet/8150/9784774158150.jpg?_ex=64x64","mediumImageUrl":"http://thumbnail.image.rakuten.co.jp/@0_mall/book/cabinet/8150/9784774158150.jpg?_ex=120x120","largeImageUrl":"http://thumbnail.image.rakuten.co.jp/@0_mall/book/cabinet/8150/9784774158150.jpg?_ex=200x200","chirayomiUrl":"","availability":"1","postageFlag":1,"limitedFlag":0,"reviewCount":0,"reviewAverage":"0.0","booksGenreId":"001012010001"}},{"Item":{"title":"江戸時代の暮らし方","titleKana":"エド ジダイ ノ クラシカタ","subTitle":"「もしも？」の図鑑","subTitleKana":"モシモ ノ ズカン","seriesName":"","seriesNameKana":"","contents":"","author":"小沢詠美子","authorKana":"オザワ,エミコ","publisherName":"実業之日本社","size":"図鑑","isbn":"9784408454450","itemCaption":"江戸時代、江戸の人々の暮らしぶりがよくわかる空想歴史図鑑。","salesDate":"2013年08月","itemPrice":945,"listPrice":945,"discountRate":0,"discountPrice":0,"itemUrl":"http://books.rakuten.co.jp/rb/12418544/","affiliateUrl":"","smallImageUrl":"http://thumbnail.image.rakuten.co.jp/@0_mall/book/cabinet/4450/9784408454450.jpg?_ex=64x64","mediumImageUrl":"http://thumbnail.image.rakuten.co.jp/@0_mall/book/cabinet/4450/9784408454450.jpg?_ex=120x120","largeImageUrl":"http://thumbnail.image.rakuten.co.jp/@0_mall/book/cabinet/4450/9784408454450.jpg?_ex=200x200","chirayomiUrl":"","availability":"1","postageFlag":0,"limitedFlag":0,"reviewCount":0,"reviewAverage":"0.0","booksGenreId":"001015"}},{"Item":{"title":"水滴と氷晶がつくりだす空の虹色ハンドブック","titleKana":"スイテキ ト ヒョウショウ ガ ツクリダス ソラ ノ ニジイロ ハンドブック","subTitle":"","subTitleKana":"","seriesName":"","seriesNameKana":"","contents":"","author":"池田圭一/服部貴昭","authorKana":"イケダ,ケイイチ/ハットリ,タカアキ","publisherName":"文一総合出版","size":"図鑑","isbn":"9784829981146","itemCaption":"","salesDate":"2013年07月下旬","itemPrice":1260,"listPrice":1260,"discountRate":0,"discountPrice":0,"itemUrl":"http://books.rakuten.co.jp/rb/12301528/","affiliateUrl":"","smallImageUrl":"http://thumbnail.image.rakuten.co.jp/@0_mall/book/cabinet/1146/9784829981146.jpg?_ex=64x64","mediumImageUrl":"http://thumbnail.image.rakuten.co.jp/@0_mall/book/cabinet/1146/9784829981146.jpg?_ex=120x120","largeImageUrl":"http://thumbnail.image.rakuten.co.jp/@0_mall/book/cabinet/1146/9784829981146.jpg?_ex=200x200","chirayomiUrl":"","availability":"1","postageFlag":0,"limitedFlag":0,"reviewCount":0,"reviewAverage":"0.0","booksGenreId":"001012004"}},{"Item":{"title":"まんが日本の歴史なぜなに事典","titleKana":"マンガ ニホン ノ レキシ ナゼ ナニ ジテン","subTitle":"","subTitleKana":"","seriesName":"ビッグ・コロタン","seriesNameKana":"ビッグ コロタン","contents":"","author":"春日和夫/川口素生","authorKana":"カスガ,カズオ/カワグチ,スナオ","publisherName":"小学館","size":"図鑑","isbn":"9784092591196","itemCaption":"日本列島の誕生から明治維新まで９０のギモンをスッキリ解決！！教科書よりわかりやすい！試験勉強に役立つ！！","salesDate":"2013年07月25日","itemPrice":998,"listPrice":998,"discountRate":0,"discountPrice":0,"itemUrl":"http://books.rakuten.co.jp/rb/12342023/","affiliateUrl":"","smallImageUrl":"http://thumbnail.image.rakuten.co.jp/@0_mall/book/cabinet/1196/9784092591196.jpg?_ex=64x64","mediumImageUrl":"http://thumbnail.image.rakuten.co.jp/@0_mall/book/cabinet/1196/9784092591196.jpg?_ex=120x120","largeImageUrl":"http://thumbnail.image.rakuten.co.jp/@0_mall/book/cabinet/1196/9784092591196.jpg?_ex=200x200","chirayomiUrl":"","availability":"1","postageFlag":0,"limitedFlag":0,"reviewCount":0,"reviewAverage":"0.0","booksGenreId":"001001003009"}},{"Item":{"title":"どこにでももっていこう！スーパーおでかけ図鑑","titleKana":"ドコニデモモッテイコウスーパーオデカケズカン","subTitle":"","subTitleKana":"","seriesName":"","seriesNameKana":"","contents":"","author":"今泉忠明/武田正倫","authorKana":"アマイズミタダアキ/タケダマサツネ","publisherName":"学研教育出版","size":"図鑑","isbn":"9784052038105","itemCaption":"動物園、水族館、野山、町の中などで大活躍！！人気の８つのジャンルがつまったとてもお得な図鑑。","salesDate":"2013年07月24日","itemPrice":1890,"listPrice":1890,"discountRate":0,"discountPrice":0,"itemUrl":"http://books.rakuten.co.jp/rb/12355681/","affiliateUrl":"","smallImageUrl":"http://thumbnail.image.rakuten.co.jp/@0_mall/book/cabinet/8105/9784052038105.jpg?_ex=64x64","mediumImageUrl":"http://thumbnail.image.rakuten.co.jp/@0_mall/book/cabinet/8105/9784052038105.jpg?_ex=120x120","largeImageUrl":"http://thumbnail.image.rakuten.co.jp/@0_mall/book/cabinet/8105/9784052038105.jpg?_ex=200x200","chirayomiUrl":"","availability":"1","postageFlag":1,"limitedFlag":0,"reviewCount":0,"reviewAverage":"0.0","booksGenreId":"001003006"}},{"Item":{"title":"ドラえもん科学ワールドspecialはじめてのふしぎ","titleKana":"ドラエモン カガク ワールド スペシャル ハジメテ ノ フシギ","subTitle":"","subTitleKana":"","seriesName":"ビッグ・コロタン","seriesNameKana":"ビッグ コロタン","contents":"","author":"藤子・Ｆ・不二雄/小学館","authorKana":"フジコ エフ フジオ/ショウガクカン","publisherName":"小学館","size":"図鑑","isbn":"9784092591264","itemCaption":"ドラえもんを読んで、子どもが科学を好きになる！はじめてのたのしい科学よみときブック！すぐ読める４９の「ふしぎ」が大集合。「朝の読書」にもおすすめ！","salesDate":"2013年07月24日","itemPrice":893,"listPrice":893,"discountRate":0,"discountPrice":0,"itemUrl":"http://books.rakuten.co.jp/rb/12348387/","affiliateUrl":"","smallImageUrl":"http://thumbnail.image.rakuten.co.jp/@0_mall/book/cabinet/1264/9784092591264.jpg?_ex=64x64","mediumImageUrl":"http://thumbnail.image.rakuten.co.jp/@0_mall/book/cabinet/1264/9784092591264.jpg?_ex=120x120","largeImageUrl":"http://thumbnail.image.rakuten.co.jp/@0_mall/book/cabinet/1264/9784092591264.jpg?_ex=200x200","chirayomiUrl":"","availability":"1","postageFlag":0,"limitedFlag":0,"reviewCount":1,"reviewAverage":"5.0","booksGenreId":"001001003009"}},{"Item":{"title":"魚のクイズ図鑑","titleKana":"サカナ ノ クイズ ズカン","subTitle":"","subTitleKana":"","seriesName":"ニューワイド学研の図鑑","seriesNameKana":"ニュー ワイド ガッケン ノ ズカン","contents":"","author":"沖山宗雄","authorKana":"オキヤマ,ムネオ","publisherName":"学研教育出版","size":"図鑑","isbn":"9784052037863","itemCaption":"全部できるかな？食べられる魚、きけんな魚、深海にすむ魚、魚のからだ。１００問の楽しくてためになるクイズ！","salesDate":"2013年07月24日","itemPrice":893,"listPrice":893,"discountRate":0,"discountPrice":0,"itemUrl":"http://books.rakuten.co.jp/rb/12355679/","affiliateUrl":"","smallImageUrl":"http://thumbnail.image.rakuten.co.jp/@0_mall/book/cabinet/7863/9784052037863.jpg?_ex=64x64","mediumImageUrl":"http://thumbnail.image.rakuten.co.jp/@0_mall/book/cabinet/7863/9784052037863.jpg?_ex=120x120","largeImageUrl":"http://thumbnail.image.rakuten.co.jp/@0_mall/book/cabinet/7863/9784052037863.jpg?_ex=200x200","chirayomiUrl":"","availability":"1","postageFlag":0,"limitedFlag":0,"reviewCount":0,"reviewAverage":"0.0","booksGenreId":"001003006"}},{"Item":{"title":"なんでも飛びだす！3D図鑑","titleKana":"ナンデモ　トビダススリーディーズカン","subTitle":"３Ｄビュアで見よう！","subTitleKana":"スリーディー ビュア デ ミヨウ","seriesName":"","seriesNameKana":"","contents":"","author":"久保政喜/猪郷久義","authorKana":"クボマサキ/イゴウ,ヒサヨシ","publisherName":"学研教育出版","size":"図鑑","isbn":"9784052038280","itemCaption":"動物・昆虫・恐竜・魚・自動車・風景・飛行機・花火も。迫力の１３７まい。驚きと不思議の立体写真図鑑。","salesDate":"2013年07月24日","itemPrice":1575,"listPrice":1575,"discountRate":0,"discountPrice":0,"itemUrl":"http://books.rakuten.co.jp/rb/12355682/","affiliateUrl":"","smallImageUrl":"http://thumbnail.image.rakuten.co.jp/@0_mall/book/cabinet/8280/9784052038280.jpg?_ex=64x64","mediumImageUrl":"http://thumbnail.image.rakuten.co.jp/@0_mall/book/cabinet/8280/9784052038280.jpg?_ex=120x120","largeImageUrl":"http://thumbnail.image.rakuten.co.jp/@0_mall/book/cabinet/8280/9784052038280.jpg?_ex=200x200","chirayomiUrl":"","availability":"1","postageFlag":1,"limitedFlag":0,"reviewCount":0,"reviewAverage":"0.0","booksGenreId":"001003006"}},{"Item":{"title":"動物のクイズ図鑑","titleKana":"ドウブツノクイズズカン","subTitle":"","subTitleKana":"","seriesName":"ニューワイド学研の図鑑","seriesNameKana":"ニュー ワイド ガッケン ノ ズカン","contents":"","author":"今泉忠明","authorKana":"イマイズミタダアキ","publisherName":"学研教育出版","size":"図鑑","isbn":"9784052037870","itemCaption":"全部できるかな？世界のいろいろな動物、ほ乳類、は虫類、両生類。１００問の楽しくてためになるクイズ！","salesDate":"2013年07月24日","itemPrice":893,"listPrice":893,"discountRate":0,"discountPrice":0,"itemUrl":"http://books.rakuten.co.jp/rb/12355680/","affiliateUrl":"","smallImageUrl":"http://thumbnail.image.rakuten.co.jp/@0_mall/book/cabinet/7870/9784052037870.jpg?_ex=64x64","mediumImageUrl":"http://thumbnail.image.rakuten.co.jp/@0_mall/book/cabinet/7870/9784052037870.jpg?_ex=120x120","largeImageUrl":"http://thumbnail.image.rakuten.co.jp/@0_mall/book/cabinet/7870/9784052037870.jpg?_ex=200x200","chirayomiUrl":"","availability":"1","postageFlag":0,"limitedFlag":0,"reviewCount":0,"reviewAverage":"0.0","booksGenreId":"001003006"}},{"Item":{"title":"フランス菓子図鑑","titleKana":"フランス ガシ ズカン","subTitle":"お菓子の名前と由来","subTitleKana":"オカシ ノ ナマエ ト ユライ","seriesName":"","seriesNameKana":"","contents":"","author":"大森由紀子","authorKana":"オオモリ,ユキコ","publisherName":"世界文化社","size":"図鑑","isbn":"9784418132195","itemCaption":"マカロン、パリ・ブレスト、オペラ、モンブラン、ガレット・デ・ロワ、カトル・カール…お菓子に秘められた物語。誕生秘話から、生地やクリームの種類など熟知したい基本用語まで、スイーツ・マニアのためのお菓子便利帖。","salesDate":"2013年07月19日","itemPrice":2100,"listPrice":2100,"discountRate":0,"discountPrice":0,"itemUrl":"http://books.rakuten.co.jp/rb/12369191/","affiliateUrl":"","smallImageUrl":"http://thumbnail.image.rakuten.co.jp/@0_mall/book/cabinet/2195/9784418132195.jpg?_ex=64x64","mediumImageUrl":"http://thumbnail.image.rakuten.co.jp/@0_mall/book/cabinet/2195/9784418132195.jpg?_ex=120x120","largeImageUrl":"http://thumbnail.image.rakuten.co.jp/@0_mall/book/cabinet/2195/9784418132195.jpg?_ex=200x200","chirayomiUrl":"","availability":"1","postageFlag":1,"limitedFlag":0,"reviewCount":0,"reviewAverage":"0.0","booksGenreId":"001010011002"}},{"Item":{"title":"危険・有毒生物","titleKana":"キケン ユウドク セイブツ","subTitle":"","subTitleKana":"","seriesName":"フィールドベスト図鑑","seriesNameKana":"フィールド ベスト ズカン","contents":"","author":"篠永哲/野口玉雄","authorKana":"シノナガ,サトシ/ノグチ,タマオ","publisherName":"学研教育出版","size":"図鑑","isbn":"9784058000205","itemCaption":"陸、海の危険・有毒生物、寄生虫ほかを約４００種紹介。危険・有毒な生物、食中毒を起こす海洋生物、病気を媒介する生物など写真とイラストでくわしく解説。","salesDate":"2013年07月16日","itemPrice":2100,"listPrice":2100,"discountRate":0,"discountPrice":0,"itemUrl":"http://books.rakuten.co.jp/rb/12355795/","affiliateUrl":"","smallImageUrl":"http://thumbnail.image.rakuten.co.jp/@0_mall/book/cabinet/0205/9784058000205.jpg?_ex=64x64","mediumImageUrl":"http://thumbnail.image.rakuten.co.jp/@0_mall/book/cabinet/0205/9784058000205.jpg?_ex=120x120","largeImageUrl":"http://thumbnail.image.rakuten.co.jp/@0_mall/book/cabinet/0205/9784058000205.jpg?_ex=200x200","chirayomiUrl":"","availability":"1","postageFlag":1,"limitedFlag":0,"reviewCount":0,"reviewAverage":"0.0","booksGenreId":"001012007"}},{"Item":{"title":"爬虫類・両生類","titleKana":"ハチュウルイリョウセイルイ","subTitle":"","subTitleKana":"","seriesName":"新・ポケット版学研の図鑑","seriesNameKana":"シン ポケットバン ガッケン ノ ズカン","contents":"","author":"大渕希郷/大渕希郷","authorKana":"オオブチマサト/オオブチ,マサト","publisherName":"学研教育出版","size":"図鑑","isbn":"9784052036828","itemCaption":"野外で、動物園での観察に最適！爬虫類・両生類を約４５０種掲載！！さらによくわかる雑学知識も満載！","salesDate":"2013年07月16日","itemPrice":1008,"listPrice":1008,"discountRate":0,"discountPrice":0,"itemUrl":"http://books.rakuten.co.jp/rb/12355678/","affiliateUrl":"","smallImageUrl":"http://thumbnail.image.rakuten.co.jp/@0_mall/book/cabinet/6828/9784052036828.jpg?_ex=64x64","mediumImageUrl":"http://thumbnail.image.rakuten.co.jp/@0_mall/book/cabinet/6828/9784052036828.jpg?_ex=120x120","largeImageUrl":"http://thumbnail.image.rakuten.co.jp/@0_mall/book/cabinet/6828/9784052036828.jpg?_ex=200x200","chirayomiUrl":"","availability":"1","postageFlag":0,"limitedFlag":0,"reviewCount":0,"reviewAverage":"0.0","booksGenreId":"001003006"}},{"Item":{"title":"のってみたいな！うんてんせき","titleKana":"ノッテミタイナ ウンテンセキ","subTitle":"","subTitleKana":"","seriesName":"３５０シリーズ","seriesNameKana":"サンビャク ゴジッシリーズ","contents":"","author":"小賀野実","authorKana":"オガノ,ミノル","publisherName":"ポプラ社","size":"図鑑","isbn":"9784591135006","itemCaption":"","salesDate":"2013年07月中旬","itemPrice":368,"listPrice":368,"discountRate":0,"discountPrice":0,"itemUrl":"http://books.rakuten.co.jp/rb/12302972/","affiliateUrl":"","smallImageUrl":"http://thumbnail.image.rakuten.co.jp/@0_mall/book/cabinet/5006/9784591135006.jpg?_ex=64x64","mediumImageUrl":"http://thumbnail.image.rakuten.co.jp/@0_mall/book/cabinet/5006/9784591135006.jpg?_ex=120x120","largeImageUrl":"http://thumbnail.image.rakuten.co.jp/@0_mall/book/cabinet/5006/9784591135006.jpg?_ex=200x200","chirayomiUrl":"","availability":"1","postageFlag":0,"limitedFlag":0,"reviewCount":1,"reviewAverage":"5.0","booksGenreId":"001003003001"}},{"Item":{"title":"富士山の大図鑑","titleKana":"フジサン ノ ダイズカン","subTitle":"世界にほこる日本の名山","subTitleKana":"セカイ ニ ホコル ニホン ノ メイザン","seriesName":"","seriesNameKana":"","contents":"","author":"富士学会","authorKana":"フジ ガッカイ","publisherName":"PHP研究所","size":"図鑑","isbn":"9784569783338","itemCaption":"富士山周辺の自然環境や歴史をはじめ、富士山をテーマにした絵画・文学、四季の景観、登山ルートなども紹介。富士山のすべてがわかる一冊！","salesDate":"2013年07月10日","itemPrice":2940,"listPrice":2940,"discountRate":0,"discountPrice":0,"itemUrl":"http://books.rakuten.co.jp/rb/12380423/","affiliateUrl":"","smallImageUrl":"http://thumbnail.image.rakuten.co.jp/@0_mall/book/cabinet/3338/9784569783338.jpg?_ex=64x64","mediumImageUrl":"http://thumbnail.image.rakuten.co.jp/@0_mall/book/cabinet/3338/9784569783338.jpg?_ex=120x120","largeImageUrl":"http://thumbnail.image.rakuten.co.jp/@0_mall/book/cabinet/3338/9784569783338.jpg?_ex=200x200","chirayomiUrl":"","availability":"1","postageFlag":1,"limitedFlag":0,"reviewCount":0,"reviewAverage":"0.0","booksGenreId":"001015"}},{"Item":{"title":"地球図鑑","titleKana":"チキュウズカン","subTitle":"３Ｄアニメーションで見て学ぼう","subTitleKana":"スリーディー アニメーション デ ミテ マナボウ","seriesName":"","seriesNameKana":"","contents":"","author":"キム・ブライアン/ジョン・ウッドワード","authorKana":"キムブライアン/ジョンウッドワード","publisherName":"化学同人","size":"図鑑","isbn":"9784759815481","itemCaption":"この本はたくさんの図を使って地球を説明している図鑑です。今までの図鑑とちがうのは、コンピュータを使って３Ｄ画面を動かすことができるところです。本当にその場所で観察しているようです。竜巻を発生させてみてください。氷河はどんなふうに動きますか？大昔に陸のかたまりがぶつかって…その先はあなたの目で確かめてくださいね。","salesDate":"2013年07月05日","itemPrice":1890,"listPrice":1890,"discountRate":0,"discountPrice":0,"itemUrl":"http://books.rakuten.co.jp/rb/12323932/","affiliateUrl":"","smallImageUrl":"http://thumbnail.image.rakuten.co.jp/@0_mall/book/cabinet/5481/9784759815481.jpg?_ex=64x64","mediumImageUrl":"http://thumbnail.image.rakuten.co.jp/@0_mall/book/cabinet/5481/9784759815481.jpg?_ex=120x120","largeImageUrl":"http://thumbnail.image.rakuten.co.jp/@0_mall/book/cabinet/5481/9784759815481.jpg?_ex=200x200","chirayomiUrl":"","availability":"1","postageFlag":1,"limitedFlag":0,"reviewCount":0,"reviewAverage":"0.0","booksGenreId":"001003006/001011009"}},{"Item":{"title":"宇宙図鑑","titleKana":"ウチュウズカン","subTitle":"３Ｄアニメーションで見て学ぼう","subTitleKana":"スリーディー アニメーション デ ミテ マナボウ","seriesName":"","seriesNameKana":"","contents":"","author":"キャロル・ストット/伊藤伸子","authorKana":"キャロルストット/イトウノブコ","publisherName":"化学同人","size":"図鑑","isbn":"9784759815474","itemCaption":"この本はたくさんの図を使って宇宙を説明している図鑑です。今までの図鑑とちがうのは、コンピュータを使って３Ｄ画面を動かすことができるところです。机に座りながら天体観測ができるんですよ。ビッグバンとはどんなできごとだったのでしょうか？超新星爆発っていったいなにが爆発するのでしょうか？…たちまちあなたの目の前に宇宙の不思議が広がります。火星の表面でロボット探査車を動かすことだってできるんですよ！","salesDate":"2013年07月05日","itemPrice":1890,"listPrice":1890,"discountRate":0,"discountPrice":0,"itemUrl":"http://books.rakuten.co.jp/rb/12323931/","affiliateUrl":"","smallImageUrl":"http://thumbnail.image.rakuten.co.jp/@0_mall/book/cabinet/5474/9784759815474.jpg?_ex=64x64","mediumImageUrl":"http://thumbnail.image.rakuten.co.jp/@0_mall/book/cabinet/5474/9784759815474.jpg?_ex=120x120","largeImageUrl":"http://thumbnail.image.rakuten.co.jp/@0_mall/book/cabinet/5474/9784759815474.jpg?_ex=200x200","chirayomiUrl":"","availability":"1","postageFlag":1,"limitedFlag":0,"reviewCount":0,"reviewAverage":"0.0","booksGenreId":"001003006/001011009"}},{"Item":{"title":"日本の戦争遺跡図鑑","titleKana":"ニホン ノ センソウ イセキ ズカン","subTitle":"そこで、何が起こったの？","subTitleKana":"ソコデ ナニ ガ オコッタノ","seriesName":"","seriesNameKana":"","contents":"","author":"戦争遺跡保存全国ネットワーク","authorKana":"センソウ イセキ ホゾン ゼンコク ネットワーク","publisherName":"PHP研究所","size":"図鑑","isbn":"9784569783444","itemCaption":"","salesDate":"2013年07月03日","itemPrice":2940,"listPrice":2940,"discountRate":0,"discountPrice":0,"itemUrl":"http://books.rakuten.co.jp/rb/12373868/","affiliateUrl":"","smallImageUrl":"http://thumbnail.image.rakuten.co.jp/@0_mall/book/cabinet/3444/9784569783444.jpg?_ex=64x64","mediumImageUrl":"http://thumbnail.image.rakuten.co.jp/@0_mall/book/cabinet/3444/9784569783444.jpg?_ex=120x120","largeImageUrl":"http://thumbnail.image.rakuten.co.jp/@0_mall/book/cabinet/3444/9784569783444.jpg?_ex=200x200","chirayomiUrl":"","availability":"1","postageFlag":1,"limitedFlag":0,"reviewCount":0,"reviewAverage":"0.0","booksGenreId":"001003006"}},{"Item":{"title":"長沼毅の世界は理科でできている（植物）","titleKana":"ナガヌマ タケシ ノ セカイ ワ リカ デ デキテイル","subTitle":"","subTitleKana":"","seriesName":"","seriesNameKana":"","contents":"","author":"長沼毅","authorKana":"ナガヌマ,タケシ","publisherName":"ほるぷ出版","size":"図鑑","isbn":"9784593586806","itemCaption":"","salesDate":"2013年07月","itemPrice":2940,"listPrice":2940,"discountRate":0,"discountPrice":0,"itemUrl":"http://books.rakuten.co.jp/rb/12388673/","affiliateUrl":"","smallImageUrl":"http://thumbnail.image.rakuten.co.jp/@0_mall/book/cabinet/6806/9784593586806.jpg?_ex=64x64","mediumImageUrl":"http://thumbnail.image.rakuten.co.jp/@0_mall/book/cabinet/6806/9784593586806.jpg?_ex=120x120","largeImageUrl":"http://thumbnail.image.rakuten.co.jp/@0_mall/book/cabinet/6806/9784593586806.jpg?_ex=200x200","chirayomiUrl":"","availability":"1","postageFlag":1,"limitedFlag":0,"reviewCount":0,"reviewAverage":"0.0","booksGenreId":"001003006"}},{"Item":{"title":"パッケージクラフト（親子で楽しむ小学校低学年編）","titleKana":"パッケージ クラフト","subTitle":"みんなで楽しい空箱工作！","subTitleKana":"ミンナ デ タノシイ カラバコ コウサク","seriesName":"","seriesNameKana":"","contents":"","author":"高橋和真/日本パッケージクラフト協会","authorKana":"タカハシ,カズマ/ニホン パッケージ クラフト キョウカイ","publisherName":"中道館","size":"図鑑","isbn":"9784760760015","itemCaption":"この箱がロボットに！？あの箱がおさかなに！？スーパーやコンビニで市販されているお菓子や食品の空箱を使ったペーパークラフトです。これまでの空箱工作と一味違うのは、パッケージのデザインを隠すことなく、逆に最大限に活かしながら、昆虫・動物・建物・ロボットなどあらゆるものを作り出すというところです。","salesDate":"2013年07月","itemPrice":1050,"listPrice":1050,"discountRate":0,"discountPrice":0,"itemUrl":"http://books.rakuten.co.jp/rb/12422197/","affiliateUrl":"","smallImageUrl":"http://thumbnail.image.rakuten.co.jp/@0_mall/book/cabinet/0015/9784760760015.jpg?_ex=64x64","mediumImageUrl":"http://thumbnail.image.rakuten.co.jp/@0_mall/book/cabinet/0015/9784760760015.jpg?_ex=120x120","largeImageUrl":"http://thumbnail.image.rakuten.co.jp/@0_mall/book/cabinet/0015/9784760760015.jpg?_ex=200x200","chirayomiUrl":"","availability":"1","postageFlag":0,"limitedFlag":0,"reviewCount":0,"reviewAverage":"0.0","booksGenreId":"001003006"}},{"Item":{"title":"日本切手カタログ（2014）","titleKana":"ニホン キッテ カタログ","subTitle":"","subTitleKana":"","seriesName":"","seriesNameKana":"","contents":"","author":"日本郵便切手商協同組合","authorKana":"ニホン ユウビン キッテショウ キョウドウ クミアイ","publisherName":"日本郵便切手商協同組合","size":"図鑑","isbn":"9784931071148","itemCaption":"２０１３年６月２５日発行までの日本切手・葉書類と、琉球・南方占領地正刷及び満州国切手を収録。","salesDate":"2013年07月","itemPrice":901,"listPrice":901,"discountRate":0,"discountPrice":0,"itemUrl":"http://books.rakuten.co.jp/rb/12397074/","affiliateUrl":"","smallImageUrl":"http://thumbnail.image.rakuten.co.jp/@0_mall/book/cabinet/1148/9784931071148.jpg?_ex=64x64","mediumImageUrl":"http://thumbnail.image.rakuten.co.jp/@0_mall/book/cabinet/1148/9784931071148.jpg?_ex=120x120","largeImageUrl":"http://thumbnail.image.rakuten.co.jp/@0_mall/book/cabinet/1148/9784931071148.jpg?_ex=200x200","chirayomiUrl":"","availability":"1","postageFlag":0,"limitedFlag":0,"reviewCount":0,"reviewAverage":"0.0","booksGenreId":"001006019004"}},{"Item":{"title":"ワーグナー","titleKana":"ワーグナー","subTitle":"バイロイトの魔術師","subTitleKana":"バイロイト ノ マジュツシ","seriesName":"","seriesNameKana":"","contents":"","author":"バリー・ミリントン/三宅幸夫","authorKana":"ミリントン,バリー/ミヤケ,ユキオ","publisherName":"悠書館","size":"図鑑","isbn":"9784903487694","itemCaption":"因襲と偏見にみちたワーグナー像を排し、その芸術の本質を、その人間性を、その政治的影響を、最新の研究成果にもとづき客観的に提示。３００点近い貴重な図版とともに、ワーグナー像の転換を迫る！","salesDate":"2013年07月","itemPrice":9975,"listPrice":9975,"discountRate":0,"discountPrice":0,"itemUrl":"http://books.rakuten.co.jp/rb/12388209/","affiliateUrl":"","smallImageUrl":"http://thumbnail.image.rakuten.co.jp/@0_mall/book/cabinet/7694/9784903487694.jpg?_ex=64x64","mediumImageUrl":"http://thumbnail.image.rakuten.co.jp/@0_mall/book/cabinet/7694/9784903487694.jpg?_ex=120x120","largeImageUrl":"http://thumbnail.image.rakuten.co.jp/@0_mall/book/cabinet/7694/9784903487694.jpg?_ex=200x200","chirayomiUrl":"","availability":"1","postageFlag":2,"limitedFlag":0,"reviewCount":0,"reviewAverage":"0.0","booksGenreId":"001011003001/001011003003"}},{"Item":{"title":"図録日本の民俗芸能","titleKana":"ズロク ニホン ノ ミンゾク ゲイノウ","subTitle":"","subTitleKana":"","seriesName":"","seriesNameKana":"","contents":"","author":"本田安次","authorKana":"ホンダ,ヤスジ","publisherName":"日本図書センター","size":"図鑑","isbn":"9784284503419","itemCaption":"","salesDate":"2013年07月","itemPrice":25200,"listPrice":25200,"discountRate":0,"discountPrice":0,"itemUrl":"http://books.rakuten.co.jp/rb/12419606/","affiliateUrl":"","smallImageUrl":"http://thumbnail.image.rakuten.co.jp/@0_mall/book/cabinet/noimage_01.gif?_ex=64x64","mediumImageUrl":"http://thumbnail.image.rakuten.co.jp/@0_mall/book/cabinet/noimage_01.gif?_ex=120x120","largeImageUrl":"http://thumbnail.image.rakuten.co.jp/@0_mall/book/cabinet/noimage_01.gif?_ex=200x200","chirayomiUrl":"","availability":"1","postageFlag":2,"limitedFlag":0,"reviewCount":0,"reviewAverage":"0.0","booksGenreId":"001008015001/001008015002"}}],"GenreInformation":[]}