{"count":95,"page":1,"first":1,"last":30,"hits":30,"carrier":0,"pageCount":4,"Items":[{"Item":{"title":"小林が可愛すぎてツライっ！！","titleKana":"コバヤシ ガ カワイスギテ ツライッ","subTitle":"秘密のＷデート！？","subTitleKana":"ヒミツ ノ ダブリュー デート","seriesName":"ＦＣルルルｎｏｖｅｌｓ","seriesNameKana":"エフシー ルルル ノベルス","contents":"","author":"時海結以/池山田剛","authorKana":"トキウミ,ユイ/イケヤマダ,ゴウ","publisherName":"小学館","size":"コミック","isbn":"9784091355607","itemCaption":"","salesDate":"2013年07月26日","itemPrice":650,"listPrice":650,"discountRate":0,"discountPrice":0,"itemUrl":"http://books.rakuten.co.jp/rb/12360791/","affiliateUrl":"","smallImageUrl":"http://thumbnail.image.rakuten.co.jp/@0_mall/book/cabinet/5607/9784091355607.jpg?_ex=64x64","mediumImageUrl":"http://thumbnail.image.rakuten.co.jp/@0_mall/book/cabinet/5607/9784091355607.jpg?_ex=120x120","largeImageUrl":"http://thumbnail.image.rakuten.co.jp/@0_mall/book/cabinet/5607/9784091355607.jpg?_ex=200x200","chirayomiUrl":"","availability":"1","postageFlag":0,"limitedFlag":0,"reviewCount":0,"reviewAverage":"0.0","booksGenreId":"001004008001/001004008004/001017006002"}},{"Item":{"title":"あやかし緋扇（放課後の隠れ鬼）","titleKana":"アヤカシ ヒセン","subTitle":"小説オリジナルストーリー","subTitleKana":"ショウセツ オリジナル ストーリー","seriesName":"ＦＣルルルｎｏｖｅｌｓ","seriesNameKana":"エフシー ルルル ノベルス","contents":"","author":"宇津田晴/くまがい杏子","authorKana":"ウツタ,セイ/クマガイ,キョウコ","publisherName":"小学館","size":"コミック","isbn":"9784091355591","itemCaption":"","salesDate":"2013年07月26日","itemPrice":650,"listPrice":650,"discountRate":0,"discountPrice":0,"itemUrl":"http://books.rakuten.co.jp/rb/12369224/","affiliateUrl":"","smallImageUrl":"http://thumbnail.image.rakuten.co.jp/@0_mall/book/cabinet/5591/9784091355591.jpg?_ex=64x64","mediumImageUrl":"http://thumbnail.image.rakuten.co.jp/@0_mall/book/cabinet/5591/9784091355591.jpg?_ex=120x120","largeImageUrl":"http://thumbnail.image.rakuten.co.jp/@0_mall/book/cabinet/5591/9784091355591.jpg?_ex=200x200","chirayomiUrl":"","availability":"1","postageFlag":0,"limitedFlag":0,"reviewCount":2,"reviewAverage":"5.0","booksGenreId":"001004008001/001004008002/001017006002"}},{"Item":{"title":"コードギアス亡国のアキト（1）","titleKana":"コード ギアス ボウコク ノ アキト","subTitle":"","subTitleKana":"","seriesName":"カドカワコミックスＡ","seriesNameKana":"カドカワ コミックス エース","contents":"","author":"小太刀右京","authorKana":"コダチ,ウキョウ","publisherName":"角川書店","size":"コミック","isbn":"9784041207758","itemCaption":"","salesDate":"2013年07月10日","itemPrice":714,"listPrice":714,"discountRate":0,"discountPrice":0,"itemUrl":"http://books.rakuten.co.jp/rb/12346468/","affiliateUrl":"","smallImageUrl":"http://thumbnail.image.rakuten.co.jp/@0_mall/book/cabinet/7758/9784041207758.jpg?_ex=64x64","mediumImageUrl":"http://thumbnail.image.rakuten.co.jp/@0_mall/book/cabinet/7758/9784041207758.jpg?_ex=120x120","largeImageUrl":"http://thumbnail.image.rakuten.co.jp/@0_mall/book/cabinet/7758/9784041207758.jpg?_ex=200x200","chirayomiUrl":"","availability":"1","postageFlag":0,"limitedFlag":0,"reviewCount":0,"reviewAverage":"0.0","booksGenreId":"001001003059/001004008002"}},{"Item":{"title":"新機動戦記ガンダムWフローズン・ティアドロップ（8）","titleKana":"シン キドウ センキ ガンダム ウイング フローズン ティアドロップ","subTitle":"","subTitleKana":"","seriesName":"角川コミックス・エース","seriesNameKana":"カドカワ コミックス エース","contents":"寂寥の狂詩曲","author":"隅沢克之/矢立肇","authorKana":"スミサワ,カツユキ/ヤダテ,ハジメ","publisherName":"角川書店","size":"コミック","isbn":"9784041207376","itemCaption":"","salesDate":"2013年06月26日","itemPrice":714,"listPrice":714,"discountRate":0,"discountPrice":0,"itemUrl":"http://books.rakuten.co.jp/rb/12326651/","affiliateUrl":"","smallImageUrl":"http://thumbnail.image.rakuten.co.jp/@0_mall/book/cabinet/7376/9784041207376.jpg?_ex=64x64","mediumImageUrl":"http://thumbnail.image.rakuten.co.jp/@0_mall/book/cabinet/7376/9784041207376.jpg?_ex=120x120","largeImageUrl":"http://thumbnail.image.rakuten.co.jp/@0_mall/book/cabinet/7376/9784041207376.jpg?_ex=200x200","chirayomiUrl":"","availability":"1","postageFlag":0,"limitedFlag":0,"reviewCount":0,"reviewAverage":"0.0","booksGenreId":"001001003059/001004008003/001004008008"}},{"Item":{"title":"花にけだもの（僕らのみらい）","titleKana":"ハナ ニ ケダモノ","subTitle":"小説オリジナルストーリー","subTitleKana":"ショウセツ オリジナル ストーリー","seriesName":"ＦＣルルルｎｏｖｅｌｓ","seriesNameKana":"エフシー ルルル ノベルス","contents":"","author":"高瀬ゆのか/杉山美和子","authorKana":"タカセ,ユノカ/スギヤマ,ミワコ","publisherName":"小学館","size":"コミック","isbn":"9784091353467","itemCaption":"","salesDate":"2013年05月","itemPrice":650,"listPrice":650,"discountRate":0,"discountPrice":0,"itemUrl":"http://books.rakuten.co.jp/rb/12302742/","affiliateUrl":"","smallImageUrl":"http://thumbnail.image.rakuten.co.jp/@0_mall/book/cabinet/3467/9784091353467.jpg?_ex=64x64","mediumImageUrl":"http://thumbnail.image.rakuten.co.jp/@0_mall/book/cabinet/3467/9784091353467.jpg?_ex=120x120","largeImageUrl":"http://thumbnail.image.rakuten.co.jp/@0_mall/book/cabinet/3467/9784091353467.jpg?_ex=200x200","chirayomiUrl":"","availability":"1","postageFlag":0,"limitedFlag":0,"reviewCount":0,"reviewAverage":"0.0","booksGenreId":"001004008003/001004008004/001017006002"}},{"Item":{"title":"花にけだもの（僕らのゆくえ）","titleKana":"ハナ ニ ケダモノ","subTitle":"小説オリジナルストーリー","subTitleKana":"ショウセツ オリジナル ストーリー","seriesName":"ＦＣルルルｎｏｖｅｌｓ","seriesNameKana":"エフシー ルルル ノベルス","contents":"","author":"高瀬ゆのか/杉山美和子","authorKana":"タカセ,ユノカ/スギヤマ,ミワコ","publisherName":"小学館","size":"コミック","isbn":"9784091351487","itemCaption":"","salesDate":"2013年01月25日","itemPrice":650,"listPrice":650,"discountRate":0,"discountPrice":0,"itemUrl":"http://books.rakuten.co.jp/rb/12175535/","affiliateUrl":"","smallImageUrl":"http://thumbnail.image.rakuten.co.jp/@0_mall/book/cabinet/1487/9784091351487.jpg?_ex=64x64","mediumImageUrl":"http://thumbnail.image.rakuten.co.jp/@0_mall/book/cabinet/1487/9784091351487.jpg?_ex=120x120","largeImageUrl":"http://thumbnail.image.rakuten.co.jp/@0_mall/book/cabinet/1487/9784091351487.jpg?_ex=200x200","chirayomiUrl":"","availability":"1","postageFlag":0,"limitedFlag":0,"reviewCount":1,"reviewAverage":"5.0","booksGenreId":"001004008003/001004008004/001017006002"}},{"Item":{"title":"小説・夏目友人帳","titleKana":"ショウセツ ナツメ ユウジンチョウ","subTitle":"","subTitleKana":"","seriesName":"花とゆめコミックススペシャル　ララノベルズ","seriesNameKana":"ハナ ト ユメ コミックス スペシャル ララ ノベルズ","contents":"","author":"緑川ゆき/村井さだゆき","authorKana":"ミドリカワ,ユキ/ムライ,サダユキ","publisherName":"白泉社","size":"コミック","isbn":"9784592197492","itemCaption":"","salesDate":"2013年01月","itemPrice":680,"listPrice":680,"discountRate":0,"discountPrice":0,"itemUrl":"http://books.rakuten.co.jp/rb/12127896/","affiliateUrl":"","smallImageUrl":"http://thumbnail.image.rakuten.co.jp/@0_mall/book/cabinet/7492/9784592197492.jpg?_ex=64x64","mediumImageUrl":"http://thumbnail.image.rakuten.co.jp/@0_mall/book/cabinet/7492/9784592197492.jpg?_ex=120x120","largeImageUrl":"http://thumbnail.image.rakuten.co.jp/@0_mall/book/cabinet/7492/9784592197492.jpg?_ex=200x200","chirayomiUrl":"","availability":"1","postageFlag":0,"limitedFlag":0,"reviewCount":22,"reviewAverage":"4.45","booksGenreId":"001004008007"}},{"Item":{"title":"BROTHERS　CONFLICT（2nd　SEASON　1）","titleKana":"ブラザーズ コンフリクト","subTitle":"","subTitleKana":"","seriesName":"シルフコミックス","seriesNameKana":"シルフ コミックス","contents":"","author":"ウダジョ/水野隆志","authorKana":"ウダジョ/ミズノ,タカシ","publisherName":"アスキー・メディアワークス","size":"コミック","isbn":"9784048912921","itemCaption":"","salesDate":"2013年01月","itemPrice":630,"listPrice":630,"discountRate":0,"discountPrice":0,"itemUrl":"http://books.rakuten.co.jp/rb/12127547/","affiliateUrl":"","smallImageUrl":"http://thumbnail.image.rakuten.co.jp/@0_mall/book/cabinet/2921/9784048912921.jpg?_ex=64x64","mediumImageUrl":"http://thumbnail.image.rakuten.co.jp/@0_mall/book/cabinet/2921/9784048912921.jpg?_ex=120x120","largeImageUrl":"http://thumbnail.image.rakuten.co.jp/@0_mall/book/cabinet/2921/9784048912921.jpg?_ex=200x200","chirayomiUrl":"","availability":"1","postageFlag":0,"limitedFlag":0,"reviewCount":0,"reviewAverage":"0.0","booksGenreId":"001004008001/001004008007"}},{"Item":{"title":"新機動戦記ガンダムWフローズン・ティアドロップ（7）","titleKana":"シン キドウ センキ ガンダム ウイング フローズン ティアドロップ","subTitle":"","subTitleKana":"","seriesName":"カドカワコミックスA","seriesNameKana":"カドカワ コミックス エース","contents":"","author":"隅沢克之/矢立肇","authorKana":"スミサワ,カツユキ/ヤダテ,ハジメ","publisherName":"角川書店","size":"コミック","isbn":"9784041204528","itemCaption":"リリーナに近づくため、火星連邦の部隊に捕捉されたヒイロたち。彼らを救出すべく、リリーナ・シティに向かったＷ教授、デュオ、フォボスはその途中で、火星連邦のナイナ、ミル、カトリーヌの操る有人型マーズスーツとラナグリン共和国が送り込んだビルゴの上陸部隊との戦闘に遭遇する。完全平和主義を謳う一国の危機に直面したＷ教授らの取った行動とはー！？『Ｐ・Ｐ・Ｐ』発動の時を描いた「プリベンター５」後編も収録。激震の第７巻。","salesDate":"2013年01月","itemPrice":714,"listPrice":714,"discountRate":0,"discountPrice":0,"itemUrl":"http://books.rakuten.co.jp/rb/12127476/","affiliateUrl":"","smallImageUrl":"http://thumbnail.image.rakuten.co.jp/@0_mall/book/cabinet/4528/9784041204528.jpg?_ex=64x64","mediumImageUrl":"http://thumbnail.image.rakuten.co.jp/@0_mall/book/cabinet/4528/9784041204528.jpg?_ex=120x120","largeImageUrl":"http://thumbnail.image.rakuten.co.jp/@0_mall/book/cabinet/4528/9784041204528.jpg?_ex=200x200","chirayomiUrl":"","availability":"1","postageFlag":0,"limitedFlag":0,"reviewCount":3,"reviewAverage":"3.33","booksGenreId":"001001003059/001004008003/001004008008"}},{"Item":{"title":"小説ちはやふる（中学生編　2）","titleKana":"ショウセツ チハヤフル","subTitle":"","subTitleKana":"","seriesName":"KC-DX","seriesNameKana":"ケイシー デラックス","contents":"","author":"時海結以/末次由紀","authorKana":"トキウミ,ユイ/スエツグ,ユキ","publisherName":"講談社","size":"コミック","isbn":"9784063767513","itemCaption":"","salesDate":"2012年12月13日","itemPrice":700,"listPrice":700,"discountRate":0,"discountPrice":0,"itemUrl":"http://books.rakuten.co.jp/rb/12085892/","affiliateUrl":"","smallImageUrl":"http://thumbnail.image.rakuten.co.jp/@0_mall/book/cabinet/7513/9784063767513.jpg?_ex=64x64","mediumImageUrl":"http://thumbnail.image.rakuten.co.jp/@0_mall/book/cabinet/7513/9784063767513.jpg?_ex=120x120","largeImageUrl":"http://thumbnail.image.rakuten.co.jp/@0_mall/book/cabinet/7513/9784063767513.jpg?_ex=200x200","chirayomiUrl":"","availability":"1","postageFlag":0,"limitedFlag":0,"reviewCount":7,"reviewAverage":"4.86","booksGenreId":"001004008003/001004008004"}},{"Item":{"title":"小説先輩と彼女","titleKana":"ショウセツ センパイ ト カノジョ","subTitle":"","subTitleKana":"","seriesName":"KC-DX","seriesNameKana":"ケイシー デラックス","contents":"","author":"里見蘭/南波あつこ","authorKana":"サトミ,ラン/ナンバ,アツコ","publisherName":"講談社","size":"コミック","isbn":"9784063767520","itemCaption":"","salesDate":"2012年12月13日","itemPrice":700,"listPrice":700,"discountRate":0,"discountPrice":0,"itemUrl":"http://books.rakuten.co.jp/rb/12085893/","affiliateUrl":"","smallImageUrl":"http://thumbnail.image.rakuten.co.jp/@0_mall/book/cabinet/7520/9784063767520.jpg?_ex=64x64","mediumImageUrl":"http://thumbnail.image.rakuten.co.jp/@0_mall/book/cabinet/7520/9784063767520.jpg?_ex=120x120","largeImageUrl":"http://thumbnail.image.rakuten.co.jp/@0_mall/book/cabinet/7520/9784063767520.jpg?_ex=200x200","chirayomiUrl":"","availability":"1","postageFlag":0,"limitedFlag":0,"reviewCount":0,"reviewAverage":"0.0","booksGenreId":"001004008003/001004008005"}},{"Item":{"title":"あやかし緋扇（時を越えた想い）","titleKana":"アヤカシ ヒセン","subTitle":"小説オリジナルストーリー","subTitleKana":"ショウセツ オリジナル ストーリー","seriesName":"ＦＣルルルｎｏｖｅｌｓ","seriesNameKana":"エフシー ルルル ノベルス","contents":"","author":"宇津田晴/くまがい杏子","authorKana":"ウツタ,セイ/クマガイ,キョウコ","publisherName":"小学館","size":"コミック","isbn":"9784091345943","itemCaption":"","salesDate":"2012年12月","itemPrice":650,"listPrice":650,"discountRate":0,"discountPrice":0,"itemUrl":"http://books.rakuten.co.jp/rb/12147083/","affiliateUrl":"","smallImageUrl":"http://thumbnail.image.rakuten.co.jp/@0_mall/book/cabinet/5943/9784091345943.jpg?_ex=64x64","mediumImageUrl":"http://thumbnail.image.rakuten.co.jp/@0_mall/book/cabinet/5943/9784091345943.jpg?_ex=120x120","largeImageUrl":"http://thumbnail.image.rakuten.co.jp/@0_mall/book/cabinet/5943/9784091345943.jpg?_ex=200x200","chirayomiUrl":"","availability":"1","postageFlag":0,"limitedFlag":0,"reviewCount":4,"reviewAverage":"4.75","booksGenreId":"001004008001/001004008002/001017006002"}},{"Item":{"title":"プリンス・オブ・ストライド（01）","titleKana":"プリンス オブ ストライド","subTitle":"ｕｐ　ｔｈｅ　ｗｉｎｄ　ａｎｄ　ｄｒｉｖｅ　ｙｏｕ","subTitleKana":"アップ ザ ウインド アンド ドライブ ユア エモーション","seriesName":"シルフコミックス","seriesNameKana":"シルフ コミックス","contents":"","author":"曽我部修司［FiFS］/永川成基","authorKana":"ソガベ,シュウジ/ナガカワ,ナルキ","publisherName":"アスキー・メディアワークス","size":"コミック","isbn":"9784048911405","itemCaption":"","salesDate":"2012年11月","itemPrice":630,"listPrice":630,"discountRate":0,"discountPrice":0,"itemUrl":"http://books.rakuten.co.jp/rb/11942318/","affiliateUrl":"","smallImageUrl":"http://thumbnail.image.rakuten.co.jp/@0_mall/book/cabinet/1405/9784048911405.jpg?_ex=64x64","mediumImageUrl":"http://thumbnail.image.rakuten.co.jp/@0_mall/book/cabinet/1405/9784048911405.jpg?_ex=120x120","largeImageUrl":"http://thumbnail.image.rakuten.co.jp/@0_mall/book/cabinet/1405/9784048911405.jpg?_ex=200x200","chirayomiUrl":"","availability":"1","postageFlag":0,"limitedFlag":0,"reviewCount":0,"reviewAverage":"0.0","booksGenreId":"001004008003/001004008005"}},{"Item":{"title":"花にけだもの（僕らのはじめて）","titleKana":"ハナ ニ ケダモノ","subTitle":"小説オリジナルストーリー","subTitleKana":"ショウセツ オリジナル ストーリー","seriesName":"ＦＣルルルｎｏｖｅｌｓ","seriesNameKana":"エフシー ルルル ノベルス","contents":"","author":"高瀬ゆのか/杉山美和子","authorKana":"タカセ,ユノカ/スギヤマ,ミワコ","publisherName":"小学館","size":"コミック","isbn":"9784091348333","itemCaption":"","salesDate":"2012年10月","itemPrice":650,"listPrice":650,"discountRate":0,"discountPrice":0,"itemUrl":"http://books.rakuten.co.jp/rb/11933756/","affiliateUrl":"","smallImageUrl":"http://thumbnail.image.rakuten.co.jp/@0_mall/book/cabinet/8333/9784091348333.jpg?_ex=64x64","mediumImageUrl":"http://thumbnail.image.rakuten.co.jp/@0_mall/book/cabinet/8333/9784091348333.jpg?_ex=120x120","largeImageUrl":"http://thumbnail.image.rakuten.co.jp/@0_mall/book/cabinet/8333/9784091348333.jpg?_ex=200x200","chirayomiUrl":"","availability":"1","postageFlag":0,"limitedFlag":0,"reviewCount":1,"reviewAverage":"5.0","booksGenreId":"001004008003/001004008004/001017006002"}},{"Item":{"title":"鏡花変幻","titleKana":"キョウカ ヘンゲン","subTitle":"鏡花あやかし秘帖","subTitleKana":"キョウカ アヤカシ ヒチョウ","seriesName":"もえぎＤＸ","seriesNameKana":"モエギ ディーエックス","contents":"","author":"橘みれい/今市子","authorKana":"タチバナ,ミレイ/イマ,イチコ","publisherName":"学研パブリッシング","size":"コミック","isbn":"9784054054301","itemCaption":"","salesDate":"2012年10月","itemPrice":1050,"listPrice":1050,"discountRate":0,"discountPrice":0,"itemUrl":"http://books.rakuten.co.jp/rb/11826610/","affiliateUrl":"","smallImageUrl":"http://thumbnail.image.rakuten.co.jp/@0_mall/book/cabinet/4301/9784054054301.jpg?_ex=64x64","mediumImageUrl":"http://thumbnail.image.rakuten.co.jp/@0_mall/book/cabinet/4301/9784054054301.jpg?_ex=120x120","largeImageUrl":"http://thumbnail.image.rakuten.co.jp/@0_mall/book/cabinet/4301/9784054054301.jpg?_ex=200x200","chirayomiUrl":"","availability":"1","postageFlag":0,"limitedFlag":0,"reviewCount":1,"reviewAverage":"5.0","booksGenreId":"001004008001/001004008004/001021001018"}},{"Item":{"title":"はぴまり〜Happy　Marriage！？〜（こんなウェディングアリですか？）","titleKana":"ハピマリ ハッピー マリッジ","subTitle":"ノベライズオリジナルストーリー","subTitleKana":"ノベライズ オリジナル ストーリー","seriesName":"フラワーコミックスαルルルｎｏｖｅｌｓ","seriesNameKana":"フラワー コミックス アルファ ルルル ノベルス","contents":"","author":"高瀬ゆのか/円城寺マキ","authorKana":"タカセ,ユノカ/エンジョウジ,マキ","publisherName":"小学館","size":"コミック","isbn":"9784091344076","itemCaption":"","salesDate":"2012年09月","itemPrice":680,"listPrice":680,"discountRate":0,"discountPrice":0,"itemUrl":"http://books.rakuten.co.jp/rb/11886696/","affiliateUrl":"","smallImageUrl":"http://thumbnail.image.rakuten.co.jp/@0_mall/book/cabinet/4076/9784091344076.jpg?_ex=64x64","mediumImageUrl":"http://thumbnail.image.rakuten.co.jp/@0_mall/book/cabinet/4076/9784091344076.jpg?_ex=120x120","largeImageUrl":"http://thumbnail.image.rakuten.co.jp/@0_mall/book/cabinet/4076/9784091344076.jpg?_ex=200x200","chirayomiUrl":"","availability":"1","postageFlag":0,"limitedFlag":0,"reviewCount":5,"reviewAverage":"4.6","booksGenreId":"001001002008/001001004006/001004008001/001004008004/001017006002"}},{"Item":{"title":"好きです鈴木くん！！（カーテンコール）","titleKana":"スキデス スズキ クン","subTitle":"小説オリジナルストーリー","subTitleKana":"ショウセツ オリジナル ストーリー","seriesName":"ＦＣルルルｎｏｖｅｌｓ","seriesNameKana":"エフシー ルルル ノベルス","contents":"","author":"時海結以/池山田剛","authorKana":"トキウミ,ユイ/イケヤマダ,ゴウ","publisherName":"小学館","size":"コミック","isbn":"9784091345400","itemCaption":"","salesDate":"2012年09月","itemPrice":650,"listPrice":650,"discountRate":0,"discountPrice":0,"itemUrl":"http://books.rakuten.co.jp/rb/11895930/","affiliateUrl":"","smallImageUrl":"http://thumbnail.image.rakuten.co.jp/@0_mall/book/cabinet/5400/9784091345400.jpg?_ex=64x64","mediumImageUrl":"http://thumbnail.image.rakuten.co.jp/@0_mall/book/cabinet/5400/9784091345400.jpg?_ex=120x120","largeImageUrl":"http://thumbnail.image.rakuten.co.jp/@0_mall/book/cabinet/5400/9784091345400.jpg?_ex=200x200","chirayomiUrl":"","availability":"1","postageFlag":0,"limitedFlag":0,"reviewCount":5,"reviewAverage":"4.4","booksGenreId":"001004008001/001004008004/001017006002"}},{"Item":{"title":"小説ちはやふる（中学生編　1）","titleKana":"ショウセツ チハヤフル","subTitle":"","subTitleKana":"","seriesName":"ＫＣデラックス","seriesNameKana":"ケイシー デラックス","contents":"","author":"時海結以/末次由紀","authorKana":"トキウミ,ユイ/スエツグ,ユキ","publisherName":"講談社","size":"コミック","isbn":"9784063766981","itemCaption":"","salesDate":"2012年09月","itemPrice":700,"listPrice":700,"discountRate":0,"discountPrice":0,"itemUrl":"http://books.rakuten.co.jp/rb/11842047/","affiliateUrl":"","smallImageUrl":"http://thumbnail.image.rakuten.co.jp/@0_mall/book/cabinet/6981/9784063766981.jpg?_ex=64x64","mediumImageUrl":"http://thumbnail.image.rakuten.co.jp/@0_mall/book/cabinet/6981/9784063766981.jpg?_ex=120x120","largeImageUrl":"http://thumbnail.image.rakuten.co.jp/@0_mall/book/cabinet/6981/9784063766981.jpg?_ex=200x200","chirayomiUrl":"","availability":"1","postageFlag":0,"limitedFlag":0,"reviewCount":13,"reviewAverage":"4.62","booksGenreId":"001004008003/001004008004"}},{"Item":{"title":"イセングリムの夜警（1）","titleKana":"イセングリム ノ ヤケイ","subTitle":"","subTitleKana":"","seriesName":"ＡＳＡＨＩコミックス","seriesNameKana":"アサヒ コミックス","contents":"","author":"紫堂恭子","authorKana":"シトウ,キョウコ","publisherName":"朝日新聞出版","size":"コミック","isbn":"9784022140975","itemCaption":"","salesDate":"2012年07月","itemPrice":651,"listPrice":651,"discountRate":0,"discountPrice":0,"itemUrl":"http://books.rakuten.co.jp/rb/11734667/","affiliateUrl":"","smallImageUrl":"http://thumbnail.image.rakuten.co.jp/@0_mall/book/cabinet/0975/9784022140975.jpg?_ex=64x64","mediumImageUrl":"http://thumbnail.image.rakuten.co.jp/@0_mall/book/cabinet/0975/9784022140975.jpg?_ex=120x120","largeImageUrl":"http://thumbnail.image.rakuten.co.jp/@0_mall/book/cabinet/0975/9784022140975.jpg?_ex=200x200","chirayomiUrl":"http://books.rakuten.co.jp/chirayomi/index.phtml?id=855o3v1m8_&path=8o/13z148J&iid=9784022140975","availability":"1","postageFlag":0,"limitedFlag":0,"reviewCount":6,"reviewAverage":"4.5","booksGenreId":"001004008003"}},{"Item":{"title":"茉莉花は月夜に微笑む","titleKana":"マツリカ ワ ツキヨ ニ ホホエム","subTitle":"新・舞姫恋風伝","subTitleKana":"シン マイヒメ レンプウデン","seriesName":"ＦＣルルルｎｏｖｅｌｓ","seriesNameKana":"フラワー コミックス ルルル ノベルス","contents":"","author":"深山くのえ","authorKana":"ミヤマ,クノエ","publisherName":"小学館","size":"コミック","isbn":"9784091346650","itemCaption":"","salesDate":"2012年07月","itemPrice":650,"listPrice":650,"discountRate":0,"discountPrice":0,"itemUrl":"http://books.rakuten.co.jp/rb/11767977/","affiliateUrl":"","smallImageUrl":"http://thumbnail.image.rakuten.co.jp/@0_mall/book/cabinet/6650/9784091346650.jpg?_ex=64x64","mediumImageUrl":"http://thumbnail.image.rakuten.co.jp/@0_mall/book/cabinet/6650/9784091346650.jpg?_ex=120x120","largeImageUrl":"http://thumbnail.image.rakuten.co.jp/@0_mall/book/cabinet/6650/9784091346650.jpg?_ex=200x200","chirayomiUrl":"","availability":"1","postageFlag":0,"limitedFlag":0,"reviewCount":1,"reviewAverage":"1.0","booksGenreId":"001004008007/001017006002"}},{"Item":{"title":"小説名探偵コナン（特別編　〔7〕）","titleKana":"ショウセツメイタンテイコナン クドウシンイチ キョウトシンセングミサツジンジケン","subTitle":"","subTitleKana":"","seriesName":"少年サンデーコミックス〔スペシャル〕","seriesNameKana":"ショウネン サンデー コミックス スペシャル","contents":"","author":"青山剛昌","authorKana":"アオヤマ,ゴウショウ","publisherName":"小学館","size":"コミック","isbn":"9784091237521","itemCaption":"","salesDate":"2012年06月","itemPrice":780,"listPrice":780,"discountRate":0,"discountPrice":0,"itemUrl":"http://books.rakuten.co.jp/rb/11684501/","affiliateUrl":"","smallImageUrl":"http://thumbnail.image.rakuten.co.jp/@0_mall/book/cabinet/7521/9784091237521.jpg?_ex=64x64","mediumImageUrl":"http://thumbnail.image.rakuten.co.jp/@0_mall/book/cabinet/7521/9784091237521.jpg?_ex=120x120","largeImageUrl":"http://thumbnail.image.rakuten.co.jp/@0_mall/book/cabinet/7521/9784091237521.jpg?_ex=200x200","chirayomiUrl":"","availability":"1","postageFlag":0,"limitedFlag":0,"reviewCount":2,"reviewAverage":"5.0","booksGenreId":"001001001009/001004008001"}},{"Item":{"title":"新機動戦記ガンダムWフローズン・ティアドロップ（6）","titleKana":"シンキドウセンキガンダムW フローズン ティアドロップヒタンノヤソウキョク シタ","subTitle":"","subTitleKana":"","seriesName":"カドカワコミックスA","seriesNameKana":"カドカワ コミックス エース","contents":"","author":"隅沢克之/矢立肇","authorKana":"スミサワ,カツユキ/ヤダテ,ハジメ","publisherName":"角川書店","size":"コミック","isbn":"9784041202906","itemCaption":"“魔法使い”で追撃してくるデュオに対してナイナは火星連邦軍第９０９特殊独立戦隊を発進させる。そこへカトリーヌの操る“プロメテウス”も加わり、戦闘は激化する。ＡＣ１９７年、サンクキングダム城が占拠され人質となったリリーナ救出のためにヒイロたち５人が活躍する、幻の「プリベンター５」も収録。","salesDate":"2012年06月","itemPrice":714,"listPrice":714,"discountRate":0,"discountPrice":0,"itemUrl":"http://books.rakuten.co.jp/rb/11684230/","affiliateUrl":"","smallImageUrl":"http://thumbnail.image.rakuten.co.jp/@0_mall/book/cabinet/2906/9784041202906.jpg?_ex=64x64","mediumImageUrl":"http://thumbnail.image.rakuten.co.jp/@0_mall/book/cabinet/2906/9784041202906.jpg?_ex=120x120","largeImageUrl":"http://thumbnail.image.rakuten.co.jp/@0_mall/book/cabinet/2906/9784041202906.jpg?_ex=200x200","chirayomiUrl":"","availability":"1","postageFlag":0,"limitedFlag":0,"reviewCount":3,"reviewAverage":"4.0","booksGenreId":"001001003059/001004008003/001004008008"}},{"Item":{"title":"舞姫恋風伝（廃城の反乱）","titleKana":"マイヒメ レンプウデン","subTitle":"小説オリジナルストーリー","subTitleKana":"ショウセツ オリジナル ストーリー","seriesName":"フラワーコミックスルルルｎｏｖｅｌｓ","seriesNameKana":"フラワー コミックス ルルル ノベルス","contents":"","author":"深山くのえ","authorKana":"ミヤマ,クノエ","publisherName":"小学館","size":"コミック","isbn":"9784091345523","itemCaption":"","salesDate":"2012年04月","itemPrice":680,"listPrice":680,"discountRate":0,"discountPrice":0,"itemUrl":"http://books.rakuten.co.jp/rb/11635543/","affiliateUrl":"","smallImageUrl":"http://thumbnail.image.rakuten.co.jp/@0_mall/book/cabinet/5523/9784091345523.jpg?_ex=64x64","mediumImageUrl":"http://thumbnail.image.rakuten.co.jp/@0_mall/book/cabinet/5523/9784091345523.jpg?_ex=120x120","largeImageUrl":"http://thumbnail.image.rakuten.co.jp/@0_mall/book/cabinet/5523/9784091345523.jpg?_ex=200x200","chirayomiUrl":"","availability":"1","postageFlag":0,"limitedFlag":0,"reviewCount":0,"reviewAverage":"0.0","booksGenreId":"001001002008/001001004006/001004008007/001017006002"}},{"Item":{"title":"小説名探偵コナン 工藤新一への挑戦状〜対決！工藤新一VS服部平次〜","titleKana":"ショウセツメイタンテイコナン クドウシンイチヘノチョウセンジョウ タイケツ クドウシンイチVSハットリヘイジ","subTitle":"","subTitleKana":"","seriesName":"少年サンデーコミックス〔スペシャル〕","seriesNameKana":"ショウネン サンデー コミックス スペシャル","contents":"","author":"青山剛昌","authorKana":"アオヤマ,ゴウショウ","publisherName":"小学館","size":"コミック","isbn":"9784091234476","itemCaption":"","salesDate":"2012年04月","itemPrice":780,"listPrice":780,"discountRate":0,"discountPrice":0,"itemUrl":"http://books.rakuten.co.jp/rb/11604023/","affiliateUrl":"","smallImageUrl":"http://thumbnail.image.rakuten.co.jp/@0_mall/book/cabinet/4476/9784091234476.jpg?_ex=64x64","mediumImageUrl":"http://thumbnail.image.rakuten.co.jp/@0_mall/book/cabinet/4476/9784091234476.jpg?_ex=120x120","largeImageUrl":"http://thumbnail.image.rakuten.co.jp/@0_mall/book/cabinet/4476/9784091234476.jpg?_ex=200x200","chirayomiUrl":"","availability":"1","postageFlag":0,"limitedFlag":0,"reviewCount":2,"reviewAverage":"5.0","booksGenreId":"001001001009/001004008001"}},{"Item":{"title":"動物のおしゃべり 1-10巻セット","titleKana":"ドウブツノオシャベリ 1-10カンセット","subTitle":"","subTitleKana":"","seriesName":"Bamboo comics","seriesNameKana":"","contents":"","author":"神仙寺瑛","authorKana":"シンセンテラエイ","publisherName":"竹書房","size":"コミック","isbn":"2100010145338","itemCaption":"","salesDate":"2012年02月","itemPrice":6620,"listPrice":6620,"discountRate":0,"discountPrice":0,"itemUrl":"http://books.rakuten.co.jp/rb/12188447/","affiliateUrl":"","smallImageUrl":"http://thumbnail.image.rakuten.co.jp/@0_mall/book/cabinet/noimage_01.gif?_ex=64x64","mediumImageUrl":"http://thumbnail.image.rakuten.co.jp/@0_mall/book/cabinet/noimage_01.gif?_ex=120x120","largeImageUrl":"http://thumbnail.image.rakuten.co.jp/@0_mall/book/cabinet/noimage_01.gif?_ex=200x200","chirayomiUrl":"","availability":"1","postageFlag":2,"limitedFlag":0,"reviewCount":0,"reviewAverage":"0.0","booksGenreId":"001001003044/001004008002"}},{"Item":{"title":"新機動戦記ガンダムWフローズン・ティアドロップ（5）","titleKana":"シン キドウ センキ ガンダム ウイング フローズン ティアドロップ","subTitle":"","subTitleKana":"","seriesName":"角川コミックス・エース","seriesNameKana":"カドカワ コミックス エース","contents":"悲嘆の夜想曲","author":"隅沢克之/矢立肇","authorKana":"スミサワ,カツユキ/ヤダテ,ハジメ","publisherName":"角川書店","size":"コミック","isbn":"9784041201367","itemCaption":"","salesDate":"2012年02月","itemPrice":714,"listPrice":714,"discountRate":0,"discountPrice":0,"itemUrl":"http://books.rakuten.co.jp/rb/11509154/","affiliateUrl":"","smallImageUrl":"http://thumbnail.image.rakuten.co.jp/@0_mall/book/cabinet/1367/9784041201367.jpg?_ex=64x64","mediumImageUrl":"http://thumbnail.image.rakuten.co.jp/@0_mall/book/cabinet/1367/9784041201367.jpg?_ex=120x120","largeImageUrl":"http://thumbnail.image.rakuten.co.jp/@0_mall/book/cabinet/1367/9784041201367.jpg?_ex=200x200","chirayomiUrl":"","availability":"1","postageFlag":0,"limitedFlag":0,"reviewCount":3,"reviewAverage":"4.33","booksGenreId":"001001003059/001004008003/001004008008"}},{"Item":{"title":"舞姫恋風伝","titleKana":"マイヒメ レンプウデン","subTitle":"小説オリジナルストーリー","subTitleKana":"ショウセツ オリジナル ストーリー","seriesName":"ＦＣルルルｎｏｖｅｌｓ","seriesNameKana":"フラワー コミックス ルルル ノベルス","contents":"","author":"深山くのえ","authorKana":"ミヤマ,クノエ","publisherName":"小学館","size":"コミック","isbn":"9784091344090","itemCaption":"","salesDate":"2012年02月","itemPrice":680,"listPrice":680,"discountRate":0,"discountPrice":0,"itemUrl":"http://books.rakuten.co.jp/rb/11535903/","affiliateUrl":"","smallImageUrl":"http://thumbnail.image.rakuten.co.jp/@0_mall/book/cabinet/4090/9784091344090.jpg?_ex=64x64","mediumImageUrl":"http://thumbnail.image.rakuten.co.jp/@0_mall/book/cabinet/4090/9784091344090.jpg?_ex=120x120","largeImageUrl":"http://thumbnail.image.rakuten.co.jp/@0_mall/book/cabinet/4090/9784091344090.jpg?_ex=200x200","chirayomiUrl":"","availability":"1","postageFlag":0,"limitedFlag":0,"reviewCount":1,"reviewAverage":"5.0","booksGenreId":"001004008007/001017006002"}},{"Item":{"title":"伯爵の情熱は海をこえて","titleKana":"ハクシヤク ノ ジヨウネツ ワ ウミ オ コエテ","subTitle":"","subTitleKana":"","seriesName":"エメラルドコミックス　ロマンスコミックス","seriesNameKana":"エメラルド コミックス ロマンス コミックス","contents":"","author":"津寺里可子/ロレイン・ヒース","authorKana":"ツジ,リカコ/ヒース,ロレイン","publisherName":"宙出版","size":"コミック","isbn":"9784776731580","itemCaption":"","salesDate":"2012年02月01日","itemPrice":650,"listPrice":650,"discountRate":0,"discountPrice":0,"itemUrl":"http://books.rakuten.co.jp/rb/11319926/","affiliateUrl":"","smallImageUrl":"http://thumbnail.image.rakuten.co.jp/@0_mall/book/cabinet/1580/9784776731580.jpg?_ex=64x64","mediumImageUrl":"http://thumbnail.image.rakuten.co.jp/@0_mall/book/cabinet/1580/9784776731580.jpg?_ex=120x120","largeImageUrl":"http://thumbnail.image.rakuten.co.jp/@0_mall/book/cabinet/1580/9784776731580.jpg?_ex=200x200","chirayomiUrl":"","availability":"1","postageFlag":0,"limitedFlag":0,"reviewCount":2,"reviewAverage":"5.0","booksGenreId":"001004008004"}},{"Item":{"title":"艶漢（アデカン） 1-6巻セット","titleKana":"ツヤカラ（アデカン） 1-6カンセット","subTitle":"","subTitleKana":"","seriesName":"Wings comics","seriesNameKana":"","contents":"","author":"尚月地","authorKana":"ナオツキチ","publisherName":"新書館","size":"コミック","isbn":"2100010145208","itemCaption":"","salesDate":"2012年02月","itemPrice":3625,"listPrice":3625,"discountRate":0,"discountPrice":0,"itemUrl":"http://books.rakuten.co.jp/rb/12188434/","affiliateUrl":"","smallImageUrl":"http://thumbnail.image.rakuten.co.jp/@0_mall/book/cabinet/noimage_01.gif?_ex=64x64","mediumImageUrl":"http://thumbnail.image.rakuten.co.jp/@0_mall/book/cabinet/noimage_01.gif?_ex=120x120","largeImageUrl":"http://thumbnail.image.rakuten.co.jp/@0_mall/book/cabinet/noimage_01.gif?_ex=200x200","chirayomiUrl":"","availability":"1","postageFlag":2,"limitedFlag":0,"reviewCount":0,"reviewAverage":"0.0","booksGenreId":"001001002012/001004008002/001017005010/001021002005"}},{"Item":{"title":"SWAN MAGAZINE 1-30巻セット","titleKana":"SWAN MAGAZINE 1-30カンセット","subTitle":"","subTitleKana":"","seriesName":"","seriesNameKana":"","contents":"","author":"","authorKana":"","publisherName":"平凡社","size":"コミック","isbn":"2100010145451","itemCaption":"","salesDate":"2012年02月","itemPrice":30608,"listPrice":30608,"discountRate":0,"discountPrice":0,"itemUrl":"http://books.rakuten.co.jp/rb/12188459/","affiliateUrl":"","smallImageUrl":"http://thumbnail.image.rakuten.co.jp/@0_mall/book/cabinet/5451/2100010145451.jpg?_ex=64x64","mediumImageUrl":"http://thumbnail.image.rakuten.co.jp/@0_mall/book/cabinet/5451/2100010145451.jpg?_ex=120x120","largeImageUrl":"http://thumbnail.image.rakuten.co.jp/@0_mall/book/cabinet/5451/2100010145451.jpg?_ex=200x200","chirayomiUrl":"","availability":"1","postageFlag":2,"limitedFlag":0,"reviewCount":0,"reviewAverage":"0.0","booksGenreId":"001004008007/001017005010"}}],"GenreInformation":[]}