{"count":5393,"page":1,"first":1,"last":30,"hits":30,"carrier":0,"pageCount":100,"Items":[{"Item":{"title":"安達祐実写真集「私生活」","titleKana":"アダチユミシャシンシュウ　シセイカツ","subTitle":"","subTitleKana":"","seriesName":"","seriesNameKana":"","contents":"","author":"安達祐実/桑島智輝","authorKana":"アダチ ユミ/クワシマ トモキ","publisherName":"集英社","size":"","isbn":"9784087806922","itemCaption":"","salesDate":"2013年09月","itemPrice":3150,"listPrice":3150,"discountRate":0,"discountPrice":0,"itemUrl":"http://books.rakuten.co.jp/rb/12422783/","affiliateUrl":"","smallImageUrl":"http://thumbnail.image.rakuten.co.jp/@0_mall/book/cabinet/6922/9784087806922.jpg?_ex=64x64","mediumImageUrl":"http://thumbnail.image.rakuten.co.jp/@0_mall/book/cabinet/6922/9784087806922.jpg?_ex=120x120","largeImageUrl":"http://thumbnail.image.rakuten.co.jp/@0_mall/book/cabinet/6922/9784087806922.jpg?_ex=200x200","chirayomiUrl":"","availability":"5","postageFlag":2,"limitedFlag":0,"reviewCount":0,"reviewAverage":"0.0","booksGenreId":"001013001"}},{"Item":{"title":"私がモテないのはどう考えてもお前らが悪い！（6）初回限定特装版","titleKana":"ワタシガモテナイノハドウカンガエテモオマエラガワルイ 6 ショカイゲンテイトクソウバン","subTitle":"","subTitleKana":"","seriesName":"SEコミックスプレミアム","seriesNameKana":"ＳＥコミックスプレミアム","contents":"","author":"谷川ニコ","authorKana":"タニガワ　ニコ","publisherName":"スクウェア・エニックス","size":"コミック","isbn":"9784757540248","itemCaption":"","salesDate":"2014年03月22日","itemPrice":1600,"listPrice":1600,"discountRate":0,"discountPrice":0,"itemUrl":"http://books.rakuten.co.jp/rb/12364476/","affiliateUrl":"","smallImageUrl":"http://thumbnail.image.rakuten.co.jp/@0_mall/book/cabinet/0248/9784757540248.jpg?_ex=64x64","mediumImageUrl":"http://thumbnail.image.rakuten.co.jp/@0_mall/book/cabinet/0248/9784757540248.jpg?_ex=120x120","largeImageUrl":"http://thumbnail.image.rakuten.co.jp/@0_mall/book/cabinet/0248/9784757540248.jpg?_ex=200x200","chirayomiUrl":"","availability":"5","postageFlag":1,"limitedFlag":0,"reviewCount":0,"reviewAverage":"0.0","booksGenreId":"001001001002"}},{"Item":{"title":"誰でも受かる私立医学部入試の極意増補改訂版","titleKana":"ダレ デモ ウカル シリツ イガクブ ニュウシ ノ ゴクイ","subTitle":"受験情報のすべてと合格するためのノウハウ","subTitleKana":"ジュケン ジョウホウ ノ スベテ ト ゴウカクスル タメノ ノ","seriesName":"Ｙｅｌｌ　ｂｏｏｋｓ","seriesNameKana":"エール ブックス","contents":"","author":"横山一彦","authorKana":"ヨコヤマ,カズヒコ","publisherName":"エール出版社","size":"単行本","isbn":"9784753932153","itemCaption":"","salesDate":"2013年09月","itemPrice":1575,"listPrice":1575,"discountRate":0,"discountPrice":0,"itemUrl":"http://books.rakuten.co.jp/rb/12419731/","affiliateUrl":"","smallImageUrl":"http://thumbnail.image.rakuten.co.jp/@0_mall/book/cabinet/2153/9784753932153.jpg?_ex=64x64","mediumImageUrl":"http://thumbnail.image.rakuten.co.jp/@0_mall/book/cabinet/2153/9784753932153.jpg?_ex=120x120","largeImageUrl":"http://thumbnail.image.rakuten.co.jp/@0_mall/book/cabinet/2153/9784753932153.jpg?_ex=200x200","chirayomiUrl":"","availability":"1","postageFlag":1,"limitedFlag":0,"reviewCount":0,"reviewAverage":"0.0","booksGenreId":"001008012002"}},{"Item":{"title":"絶対王子〜私を奪う気高き暴君","titleKana":"ゼツタイ オウジ ワタクシ オ ウバウ ケダカキ ボウクン","subTitle":"","subTitleKana":"","seriesName":"ミッシィコミックスＹＬＣ　Ｃｏｌｌｅｃｔｉｏｎ","seriesNameKana":"ミツシイ コミツクス YLC コレクシヨン","contents":"","author":"花李　くる実","authorKana":"スモモ,クルミ","publisherName":"宙出版","size":"コミック","isbn":"9784776735663","itemCaption":"","salesDate":"2013年08月17日","itemPrice":500,"listPrice":500,"discountRate":0,"discountPrice":0,"itemUrl":"http://books.rakuten.co.jp/rb/12382478/","affiliateUrl":"","smallImageUrl":"http://thumbnail.image.rakuten.co.jp/@0_mall/book/cabinet/noimage_01.gif?_ex=64x64","mediumImageUrl":"http://thumbnail.image.rakuten.co.jp/@0_mall/book/cabinet/noimage_01.gif?_ex=120x120","largeImageUrl":"http://thumbnail.image.rakuten.co.jp/@0_mall/book/cabinet/noimage_01.gif?_ex=200x200","chirayomiUrl":"","availability":"5","postageFlag":0,"limitedFlag":0,"reviewCount":1,"reviewAverage":"3.0","booksGenreId":"001015"}},{"Item":{"title":"真剣で私に恋しなさい！S (5)","titleKana":"マジデワタシニコイシナサイエス5","subTitle":"","subTitleKana":"","seriesName":"一迅社文庫","seriesNameKana":"イチジンシャブンコ","contents":"","author":"野山風一郎/みなとそふと","authorKana":"ノヤマフウイチロウ/ミナトソフト","publisherName":"一迅社","size":"文庫","isbn":"9784758044738","itemCaption":"","salesDate":"2013年08月20日","itemPrice":620,"listPrice":620,"discountRate":0,"discountPrice":0,"itemUrl":"http://books.rakuten.co.jp/rb/12384606/","affiliateUrl":"","smallImageUrl":"http://thumbnail.image.rakuten.co.jp/@0_mall/book/cabinet/4738/9784758044738.jpg?_ex=64x64","mediumImageUrl":"http://thumbnail.image.rakuten.co.jp/@0_mall/book/cabinet/4738/9784758044738.jpg?_ex=120x120","largeImageUrl":"http://thumbnail.image.rakuten.co.jp/@0_mall/book/cabinet/4738/9784758044738.jpg?_ex=200x200","chirayomiUrl":"","availability":"5","postageFlag":0,"limitedFlag":0,"reviewCount":0,"reviewAverage":"0.0","booksGenreId":"001004008009/001008022008/001017005002"}},{"Item":{"title":"こんな私がマンガ家に！？","titleKana":"こんな私がマンガ家に！？","subTitle":"","subTitleKana":"","seriesName":"","seriesNameKana":"","contents":"","author":"青沼貴子","authorKana":"青沼貴子","publisherName":"イースト・プレス","size":"コミック","isbn":"9784781607313","itemCaption":"","salesDate":"2013年08月中旬","itemPrice":1050,"listPrice":1050,"discountRate":0,"discountPrice":0,"itemUrl":"http://books.rakuten.co.jp/rb/12382934/","affiliateUrl":"","smallImageUrl":"http://thumbnail.image.rakuten.co.jp/@0_mall/book/cabinet/noimage_01.gif?_ex=64x64","mediumImageUrl":"http://thumbnail.image.rakuten.co.jp/@0_mall/book/cabinet/noimage_01.gif?_ex=120x120","largeImageUrl":"http://thumbnail.image.rakuten.co.jp/@0_mall/book/cabinet/noimage_01.gif?_ex=200x200","chirayomiUrl":"","availability":"5","postageFlag":0,"limitedFlag":0,"reviewCount":0,"reviewAverage":"0.0","booksGenreId":"001015"}},{"Item":{"title":"媚薬ガ私ヲ牝ニスル","titleKana":"ビヤクガワタシオメスニスル","subTitle":"","subTitleKana":"","seriesName":"ＭＵＪＩＮコミックス","seriesNameKana":"ムジンコミツクス","contents":"","author":"ＺＵＫＩ樹","authorKana":"ズキキ","publisherName":"ティーアイネット","size":"","isbn":"9784887744868","itemCaption":"","salesDate":"2013年08月09日","itemPrice":1050,"listPrice":1050,"discountRate":0,"discountPrice":0,"itemUrl":"http://books.rakuten.co.jp/rb/12382790/","affiliateUrl":"","smallImageUrl":"http://thumbnail.image.rakuten.co.jp/@0_mall/book/cabinet/noimage_01.gif?_ex=64x64","mediumImageUrl":"http://thumbnail.image.rakuten.co.jp/@0_mall/book/cabinet/noimage_01.gif?_ex=120x120","largeImageUrl":"http://thumbnail.image.rakuten.co.jp/@0_mall/book/cabinet/noimage_01.gif?_ex=200x200","chirayomiUrl":"","availability":"5","postageFlag":0,"limitedFlag":0,"reviewCount":0,"reviewAverage":"0.0","booksGenreId":"001015"}},{"Item":{"title":"私が当家の執事です","titleKana":"私が当家の執事です","subTitle":"","subTitleKana":"","seriesName":"ビーズログ文庫","seriesNameKana":"","contents":"","author":"剛しいら/笹原亜美","authorKana":"剛しいら/笹原亜美","publisherName":"エンターブレイン","size":"文庫","isbn":"9784047290792","itemCaption":"","salesDate":"2013年08月12日","itemPrice":609,"listPrice":609,"discountRate":0,"discountPrice":0,"itemUrl":"http://books.rakuten.co.jp/rb/12402890/","affiliateUrl":"","smallImageUrl":"http://thumbnail.image.rakuten.co.jp/@0_mall/book/cabinet/0792/9784047290792.jpg?_ex=64x64","mediumImageUrl":"http://thumbnail.image.rakuten.co.jp/@0_mall/book/cabinet/0792/9784047290792.jpg?_ex=120x120","largeImageUrl":"http://thumbnail.image.rakuten.co.jp/@0_mall/book/cabinet/0792/9784047290792.jpg?_ex=200x200","chirayomiUrl":"","availability":"5","postageFlag":0,"limitedFlag":0,"reviewCount":0,"reviewAverage":"0.0","booksGenreId":"001019001/001019007"}},{"Item":{"title":"私の本棚","titleKana":"ワタシノホンダナ","subTitle":"","subTitleKana":"","seriesName":"","seriesNameKana":"","contents":"","author":"新潮社","authorKana":"シンチョウシャ","publisherName":"新潮社","size":"単行本","isbn":"9784103540229","itemCaption":"","salesDate":"2013年08月30日","itemPrice":1365,"listPrice":1365,"discountRate":0,"discountPrice":0,"itemUrl":"http://books.rakuten.co.jp/rb/12402799/","affiliateUrl":"","smallImageUrl":"http://thumbnail.image.rakuten.co.jp/@0_mall/book/cabinet/noimage_01.gif?_ex=64x64","mediumImageUrl":"http://thumbnail.image.rakuten.co.jp/@0_mall/book/cabinet/noimage_01.gif?_ex=120x120","largeImageUrl":"http://thumbnail.image.rakuten.co.jp/@0_mall/book/cabinet/noimage_01.gif?_ex=200x200","chirayomiUrl":"","availability":"5","postageFlag":0,"limitedFlag":0,"reviewCount":0,"reviewAverage":"0.0","booksGenreId":"001008022008"}},{"Item":{"title":"大本営発表のマイク","titleKana":"ダイホンエイ ハッピョウ ノ マイク","subTitle":"私の十五年戦争","subTitleKana":"ワタクシ ノ ジュウゴネン センソウ","seriesName":"","seriesNameKana":"","contents":"","author":"近藤富枝","authorKana":"コンドウ,トミエ","publisherName":"河出書房新社","size":"単行本","isbn":"9784309022123","itemCaption":"","salesDate":"2013年08月13日","itemPrice":1890,"listPrice":1890,"discountRate":0,"discountPrice":0,"itemUrl":"http://books.rakuten.co.jp/rb/12389298/","affiliateUrl":"","smallImageUrl":"http://thumbnail.image.rakuten.co.jp/@0_mall/book/cabinet/2123/9784309022123.jpg?_ex=64x64","mediumImageUrl":"http://thumbnail.image.rakuten.co.jp/@0_mall/book/cabinet/2123/9784309022123.jpg?_ex=120x120","largeImageUrl":"http://thumbnail.image.rakuten.co.jp/@0_mall/book/cabinet/2123/9784309022123.jpg?_ex=200x200","chirayomiUrl":"","availability":"5","postageFlag":1,"limitedFlag":0,"reviewCount":0,"reviewAverage":"0.0","booksGenreId":"001004004001/001004004003/001008017001/001008017002/001008022008"}},{"Item":{"title":"単純な脳、複雑な「私」","titleKana":"タンジュンナノウフクザツナワタシ","subTitle":"","subTitleKana":"","seriesName":"ブルーバックス","seriesNameKana":"ブルーバツクス","contents":"","author":"池谷裕二","authorKana":"イケガヤユウジ","publisherName":"講談社","size":"新書","isbn":"9784062578301","itemCaption":"","salesDate":"2013年09月05日","itemPrice":1260,"listPrice":1260,"discountRate":0,"discountPrice":0,"itemUrl":"http://books.rakuten.co.jp/rb/12429308/","affiliateUrl":"","smallImageUrl":"http://thumbnail.image.rakuten.co.jp/@0_mall/book/cabinet/noimage_01.gif?_ex=64x64","mediumImageUrl":"http://thumbnail.image.rakuten.co.jp/@0_mall/book/cabinet/noimage_01.gif?_ex=120x120","largeImageUrl":"http://thumbnail.image.rakuten.co.jp/@0_mall/book/cabinet/noimage_01.gif?_ex=200x200","chirayomiUrl":"","availability":"5","postageFlag":0,"limitedFlag":0,"reviewCount":0,"reviewAverage":"0.0","booksGenreId":"001020002/001020010"}},{"Item":{"title":"私のおウチはHON屋さん　8","titleKana":"ワタクシ ノ オウチ ワ ホンヤサン","subTitle":"","subTitleKana":"","seriesName":"ガンガンコミックスＪＯＫＥＲ","seriesNameKana":"ガンガン コミツクス ジヨーカー","contents":"","author":"横山　知生","authorKana":"ヨコヤマ,トモオ","publisherName":"スクウェア・エニックス","size":"コミック","isbn":"9784757540415","itemCaption":"","salesDate":"2013年08月22日","itemPrice":590,"listPrice":590,"discountRate":0,"discountPrice":0,"itemUrl":"http://books.rakuten.co.jp/rb/12382747/","affiliateUrl":"","smallImageUrl":"http://thumbnail.image.rakuten.co.jp/@0_mall/book/cabinet/noimage_01.gif?_ex=64x64","mediumImageUrl":"http://thumbnail.image.rakuten.co.jp/@0_mall/book/cabinet/noimage_01.gif?_ex=120x120","largeImageUrl":"http://thumbnail.image.rakuten.co.jp/@0_mall/book/cabinet/noimage_01.gif?_ex=200x200","chirayomiUrl":"","availability":"5","postageFlag":0,"limitedFlag":0,"reviewCount":0,"reviewAverage":"0.0","booksGenreId":"001001001002/001001003050"}},{"Item":{"title":"私のハンドメイド","titleKana":"ワタシノハンドメイド","subTitle":"","subTitleKana":"","seriesName":"学研インテリアムック","seriesNameKana":"","contents":"","author":"学研パブリッシング","authorKana":"ガッケンパブリッシング","publisherName":"学研パブリッシング","size":"ムックその他","isbn":"9784056102383","itemCaption":"","salesDate":"2013年09月30日","itemPrice":1365,"listPrice":1365,"discountRate":0,"discountPrice":0,"itemUrl":"http://books.rakuten.co.jp/rb/12426783/","affiliateUrl":"","smallImageUrl":"http://thumbnail.image.rakuten.co.jp/@0_mall/book/cabinet/noimage_01.gif?_ex=64x64","mediumImageUrl":"http://thumbnail.image.rakuten.co.jp/@0_mall/book/cabinet/noimage_01.gif?_ex=120x120","largeImageUrl":"http://thumbnail.image.rakuten.co.jp/@0_mall/book/cabinet/noimage_01.gif?_ex=200x200","chirayomiUrl":"","availability":"5","postageFlag":0,"limitedFlag":0,"reviewCount":0,"reviewAverage":"0.0","booksGenreId":"001015"}},{"Item":{"title":"私は、＜ガンで亡くなる方の2人に1人は救えた！＞と考えています","titleKana":"ワタシハガンデナクナルカタノフタリニヒトリハスクエタトカンガエテイマス","subTitle":"","subTitleKana":"","seriesName":"","seriesNameKana":"","contents":"","author":"田淵正文","authorKana":"タブチマサフミ","publisherName":"明日香出版社","size":"単行本","isbn":"9784756916426","itemCaption":"","salesDate":"2013年08月12日","itemPrice":1575,"listPrice":1575,"discountRate":0,"discountPrice":0,"itemUrl":"http://books.rakuten.co.jp/rb/12375676/","affiliateUrl":"","smallImageUrl":"http://thumbnail.image.rakuten.co.jp/@0_mall/book/cabinet/6426/9784756916426.jpg?_ex=64x64","mediumImageUrl":"http://thumbnail.image.rakuten.co.jp/@0_mall/book/cabinet/6426/9784756916426.jpg?_ex=120x120","largeImageUrl":"http://thumbnail.image.rakuten.co.jp/@0_mall/book/cabinet/6426/9784756916426.jpg?_ex=200x200","chirayomiUrl":"","availability":"6","postageFlag":1,"limitedFlag":0,"reviewCount":0,"reviewAverage":"0.0","booksGenreId":"001015"}},{"Item":{"title":"私の愛、ナムジュン・パイク","titleKana":"ワタシノアイナムジュン・パイク","subTitle":"","subTitleKana":"","seriesName":"","seriesNameKana":"","contents":"","author":"久保田成子/南禎鎬","authorKana":"クボタシゲコ/ナムジョンホ","publisherName":"平凡社","size":"単行本","isbn":"9784582206395","itemCaption":"","salesDate":"2013年09月27日","itemPrice":2940,"listPrice":2940,"discountRate":0,"discountPrice":0,"itemUrl":"http://books.rakuten.co.jp/rb/12420061/","affiliateUrl":"","smallImageUrl":"http://thumbnail.image.rakuten.co.jp/@0_mall/book/cabinet/noimage_01.gif?_ex=64x64","mediumImageUrl":"http://thumbnail.image.rakuten.co.jp/@0_mall/book/cabinet/noimage_01.gif?_ex=120x120","largeImageUrl":"http://thumbnail.image.rakuten.co.jp/@0_mall/book/cabinet/noimage_01.gif?_ex=200x200","chirayomiUrl":"","availability":"5","postageFlag":1,"limitedFlag":0,"reviewCount":0,"reviewAverage":"0.0","booksGenreId":"001015"}},{"Item":{"title":"ドイツおよびヨーロッパ私法の現代的展開（仮）","titleKana":"ドイツオヨビヨーロッパシホウノゲンダイテキテンカイ","subTitle":"","subTitleKana":"","seriesName":"","seriesNameKana":"","contents":"","author":"ミヒャエル・ケスター/ダグマール・ケスター＝ヴェルチェン","authorKana":"ミヒャエルケスター/ダグマールケスター","publisherName":"日本評論社","size":"単行本","isbn":"9784535518667","itemCaption":"","salesDate":"2013年09月10日","itemPrice":6615,"listPrice":6615,"discountRate":0,"discountPrice":0,"itemUrl":"http://books.rakuten.co.jp/rb/12419839/","affiliateUrl":"","smallImageUrl":"http://thumbnail.image.rakuten.co.jp/@0_mall/book/cabinet/noimage_01.gif?_ex=64x64","mediumImageUrl":"http://thumbnail.image.rakuten.co.jp/@0_mall/book/cabinet/noimage_01.gif?_ex=120x120","largeImageUrl":"http://thumbnail.image.rakuten.co.jp/@0_mall/book/cabinet/noimage_01.gif?_ex=200x200","chirayomiUrl":"","availability":"5","postageFlag":2,"limitedFlag":0,"reviewCount":0,"reviewAverage":"0.0","booksGenreId":"001008027"}},{"Item":{"title":"私のライフノート","titleKana":"ワタシノライフノート","subTitle":"","subTitleKana":"","seriesName":"","seriesNameKana":"","contents":"","author":"終活カウンセラー協会","authorKana":"シュウカツカウンセラーキョウカイ","publisherName":"辰巳出版","size":"ムックその他","isbn":"9784777811519","itemCaption":"","salesDate":"2013年09月","itemPrice":3990,"listPrice":3990,"discountRate":0,"discountPrice":0,"itemUrl":"http://books.rakuten.co.jp/rb/12366126/","affiliateUrl":"","smallImageUrl":"http://thumbnail.image.rakuten.co.jp/@0_mall/book/cabinet/noimage_01.gif?_ex=64x64","mediumImageUrl":"http://thumbnail.image.rakuten.co.jp/@0_mall/book/cabinet/noimage_01.gif?_ex=120x120","largeImageUrl":"http://thumbnail.image.rakuten.co.jp/@0_mall/book/cabinet/noimage_01.gif?_ex=200x200","chirayomiUrl":"","availability":"5","postageFlag":2,"limitedFlag":0,"reviewCount":0,"reviewAverage":"0.0","booksGenreId":"001010013003"}},{"Item":{"title":"盆栽／木々の私生活","titleKana":"ボンサイキギノシセイカツ","subTitle":"","subTitleKana":"","seriesName":"エクス・リブリス","seriesNameKana":"エクスリブリス","contents":"","author":"アレハンドロ・サンブラ/松本健二","authorKana":"サンブラ/マツモトケンジ","publisherName":"白水社","size":"単行本","isbn":"9784560090299","itemCaption":"","salesDate":"2013年08月26日","itemPrice":2100,"listPrice":2100,"discountRate":0,"discountPrice":0,"itemUrl":"http://books.rakuten.co.jp/rb/12377887/","affiliateUrl":"","smallImageUrl":"http://thumbnail.image.rakuten.co.jp/@0_mall/book/cabinet/noimage_01.gif?_ex=64x64","mediumImageUrl":"http://thumbnail.image.rakuten.co.jp/@0_mall/book/cabinet/noimage_01.gif?_ex=120x120","largeImageUrl":"http://thumbnail.image.rakuten.co.jp/@0_mall/book/cabinet/noimage_01.gif?_ex=200x200","chirayomiUrl":"","availability":"5","postageFlag":1,"limitedFlag":0,"reviewCount":0,"reviewAverage":"0.0","booksGenreId":"001008022008"}},{"Item":{"title":"なんで私が中国に！？","titleKana":"なんで私が中国に！？","subTitle":"","subTitleKana":"","seriesName":"","seriesNameKana":"","contents":"","author":"日野トミー","authorKana":"日野トミー","publisherName":"イースト・プレス","size":"コミック","isbn":"9784781610290","itemCaption":"","salesDate":"2013年08月中旬","itemPrice":1050,"listPrice":1050,"discountRate":0,"discountPrice":0,"itemUrl":"http://books.rakuten.co.jp/rb/12382935/","affiliateUrl":"","smallImageUrl":"http://thumbnail.image.rakuten.co.jp/@0_mall/book/cabinet/noimage_01.gif?_ex=64x64","mediumImageUrl":"http://thumbnail.image.rakuten.co.jp/@0_mall/book/cabinet/noimage_01.gif?_ex=120x120","largeImageUrl":"http://thumbnail.image.rakuten.co.jp/@0_mall/book/cabinet/noimage_01.gif?_ex=200x200","chirayomiUrl":"","availability":"5","postageFlag":0,"limitedFlag":0,"reviewCount":0,"reviewAverage":"0.0","booksGenreId":"001015"}},{"Item":{"title":"私のいた場所","titleKana":"ワタシノイタバショ","subTitle":"","subTitleKana":"","seriesName":"","seriesNameKana":"","contents":"","author":"リュドミラ・ペトルシェフスカヤ/沼野恭子","authorKana":"ペトルシェフスカヤ，リュドミラ/ヌマノキョウコ","publisherName":"株式会社 河出書房新社","size":"単行本","isbn":"9784309206318","itemCaption":"","salesDate":"2013年08月22日","itemPrice":1995,"listPrice":1995,"discountRate":0,"discountPrice":0,"itemUrl":"http://books.rakuten.co.jp/rb/12389290/","affiliateUrl":"","smallImageUrl":"http://thumbnail.image.rakuten.co.jp/@0_mall/book/cabinet/noimage_01.gif?_ex=64x64","mediumImageUrl":"http://thumbnail.image.rakuten.co.jp/@0_mall/book/cabinet/noimage_01.gif?_ex=120x120","largeImageUrl":"http://thumbnail.image.rakuten.co.jp/@0_mall/book/cabinet/noimage_01.gif?_ex=200x200","chirayomiUrl":"","availability":"5","postageFlag":1,"limitedFlag":0,"reviewCount":0,"reviewAverage":"0.0","booksGenreId":"001008022008"}},{"Item":{"title":"実は私は（2）","titleKana":"ジツワワタシワ","subTitle":"","subTitleKana":"","seriesName":"少年チャンピオンコミックス","seriesNameKana":"シヨウネンチヤンピオンコミツクス","contents":"","author":"増田英二","authorKana":"マスダ,エイジ","publisherName":"秋田書店","size":"","isbn":"9784253221696","itemCaption":"","salesDate":"2013年08月08日","itemPrice":440,"listPrice":440,"discountRate":0,"discountPrice":0,"itemUrl":"http://books.rakuten.co.jp/rb/12382401/","affiliateUrl":"","smallImageUrl":"http://thumbnail.image.rakuten.co.jp/@0_mall/book/cabinet/1696/9784253221696.jpg?_ex=64x64","mediumImageUrl":"http://thumbnail.image.rakuten.co.jp/@0_mall/book/cabinet/1696/9784253221696.jpg?_ex=120x120","largeImageUrl":"http://thumbnail.image.rakuten.co.jp/@0_mall/book/cabinet/1696/9784253221696.jpg?_ex=200x200","chirayomiUrl":"","availability":"2","postageFlag":0,"limitedFlag":0,"reviewCount":0,"reviewAverage":"0.0","booksGenreId":"001001001001"}},{"Item":{"title":"海月と私（1）","titleKana":"クラゲトワタシ1","subTitle":"","subTitleKana":"","seriesName":"アフタヌーンＫＣ　ｇｏｏｄ！ＡＦＴＥＲＮＯＯＮ","seriesNameKana":"アフタヌーン ケイシー グッド アフタヌーン","contents":"","author":"麻生みこと","authorKana":"アソウミコト","publisherName":"講談社","size":"コミック","isbn":"9784063879117","itemCaption":"","salesDate":"2013年08月07日","itemPrice":620,"listPrice":620,"discountRate":0,"discountPrice":0,"itemUrl":"http://books.rakuten.co.jp/rb/12382537/","affiliateUrl":"","smallImageUrl":"http://thumbnail.image.rakuten.co.jp/@0_mall/book/cabinet/9117/9784063879117.jpg?_ex=64x64","mediumImageUrl":"http://thumbnail.image.rakuten.co.jp/@0_mall/book/cabinet/9117/9784063879117.jpg?_ex=120x120","largeImageUrl":"http://thumbnail.image.rakuten.co.jp/@0_mall/book/cabinet/9117/9784063879117.jpg?_ex=200x200","chirayomiUrl":"","availability":"1","postageFlag":0,"limitedFlag":0,"reviewCount":0,"reviewAverage":"0.0","booksGenreId":"001001003015"}},{"Item":{"title":"私の子宝相談（続）","titleKana":"ワタシ ノ コダカラ ソウダン","subTitle":"漢方で授かる６００人の感動","subTitleKana":"カンポウ デ サズカル ロッピャクニン ノ カンドウ","seriesName":"","seriesNameKana":"","contents":"","author":"歳森三千代","authorKana":"トシモリ,ミチヨ","publisherName":"幻冬舎ルネッサンス","size":"単行本","isbn":"9784779009808","itemCaption":"","salesDate":"2013年08月07日","itemPrice":1365,"listPrice":1365,"discountRate":0,"discountPrice":0,"itemUrl":"http://books.rakuten.co.jp/rb/12402752/","affiliateUrl":"","smallImageUrl":"http://thumbnail.image.rakuten.co.jp/@0_mall/book/cabinet/9808/9784779009808.jpg?_ex=64x64","mediumImageUrl":"http://thumbnail.image.rakuten.co.jp/@0_mall/book/cabinet/9808/9784779009808.jpg?_ex=120x120","largeImageUrl":"http://thumbnail.image.rakuten.co.jp/@0_mall/book/cabinet/9808/9784779009808.jpg?_ex=200x200","chirayomiUrl":"","availability":"1","postageFlag":0,"limitedFlag":0,"reviewCount":0,"reviewAverage":"0.0","booksGenreId":"001010002003/001010010001/001012009002"}},{"Item":{"title":"ラストイニング（39）","titleKana":"ラスト イニング","subTitle":"私立彩珠学院高校野球部の逆襲","subTitleKana":"シリツ サイタマ ガクイン コウコウ ヤキュウブ ノ ギャクシュ","seriesName":"ビッグコミックススピリッツ","seriesNameKana":"ビッグ コミックス スピリッツ","contents":"","author":"中原裕/神尾龍","authorKana":"ナカハラ,ユウ/カミオ,リュウ","publisherName":"小学館","size":"コミック","isbn":"9784091853431","itemCaption":"","salesDate":"2013年07月30日","itemPrice":580,"listPrice":580,"discountRate":0,"discountPrice":0,"itemUrl":"http://books.rakuten.co.jp/rb/10223037/","affiliateUrl":"","smallImageUrl":"http://thumbnail.image.rakuten.co.jp/@0_mall/book/cabinet/3431/9784091853431.jpg?_ex=64x64","mediumImageUrl":"http://thumbnail.image.rakuten.co.jp/@0_mall/book/cabinet/3431/9784091853431.jpg?_ex=120x120","largeImageUrl":"http://thumbnail.image.rakuten.co.jp/@0_mall/book/cabinet/3431/9784091853431.jpg?_ex=200x200","chirayomiUrl":"","availability":"1","postageFlag":0,"limitedFlag":0,"reviewCount":0,"reviewAverage":"0.0","booksGenreId":"001001003009"}},{"Item":{"title":"100％自分原因説であたらしい私になる！ワークブック","titleKana":"ヒャクパーセント ジブン ゲンインセツ デ アタラシイ ワタクシ ニ ナル ワー","subTitle":"Ｃｒｅａｔｉｖｅ　Ｐｏｗｅｒ　Ｍｅｔｈｏｄ","subTitleKana":"クリエイティブ パワー メソッド","seriesName":"","seriesNameKana":"","contents":"","author":"秋山まりあ","authorKana":"アキヤマ,マリア","publisherName":"宝島社","size":"単行本","isbn":"9784800212856","itemCaption":"","salesDate":"2013年08月","itemPrice":1300,"listPrice":1300,"discountRate":0,"discountPrice":0,"itemUrl":"http://books.rakuten.co.jp/rb/12426409/","affiliateUrl":"","smallImageUrl":"http://thumbnail.image.rakuten.co.jp/@0_mall/book/cabinet/2856/9784800212856.jpg?_ex=64x64","mediumImageUrl":"http://thumbnail.image.rakuten.co.jp/@0_mall/book/cabinet/2856/9784800212856.jpg?_ex=120x120","largeImageUrl":"http://thumbnail.image.rakuten.co.jp/@0_mall/book/cabinet/2856/9784800212856.jpg?_ex=200x200","chirayomiUrl":"","availability":"1","postageFlag":0,"limitedFlag":0,"reviewCount":0,"reviewAverage":"0.0","booksGenreId":"001008003002/001008004001/001010013003"}},{"Item":{"title":"生まれたままの私を","titleKana":"ウマレタ ママ ノ ワタシ オ","subTitle":"","subTitleKana":"","seriesName":"幻冬舎文庫","seriesNameKana":"ゲントウシャ ブンコ","contents":"","author":"加藤ミリヤ","authorKana":"カトウ,ミリヤ","publisherName":"幻冬舎","size":"文庫","isbn":"9784344420601","itemCaption":"女性の裸を描き続けているヌード専門画家のミク。静かな生活を愛する一方で、誰かに強く揺さぶられることを願っていた。初めて開いた個展に美しい青年が現れたとき、ミクの体を始まりの予感が駆け巡るー。誰にも似ていない感性で愛の屈辱と恍惚を描くデビュー小説。恋した男に失望し、見限っていく心模様を鋭くとらえた書き下ろし短編も収録。","salesDate":"2013年08月","itemPrice":520,"listPrice":520,"discountRate":0,"discountPrice":0,"itemUrl":"http://books.rakuten.co.jp/rb/12416167/","affiliateUrl":"","smallImageUrl":"http://thumbnail.image.rakuten.co.jp/@0_mall/book/cabinet/0601/9784344420601.jpg?_ex=64x64","mediumImageUrl":"http://thumbnail.image.rakuten.co.jp/@0_mall/book/cabinet/0601/9784344420601.jpg?_ex=120x120","largeImageUrl":"http://thumbnail.image.rakuten.co.jp/@0_mall/book/cabinet/0601/9784344420601.jpg?_ex=200x200","chirayomiUrl":"","availability":"1","postageFlag":0,"limitedFlag":0,"reviewCount":0,"reviewAverage":"0.0","booksGenreId":"001004008002"}},{"Item":{"title":"私の東大合格作戦（2014年版）","titleKana":"ワタクシ ノ トウダイ ゴウカク サクセン","subTitle":"","subTitleKana":"","seriesName":"Ｙｅｌｌ　ｂｏｏｋｓ","seriesNameKana":"エール ブックス","contents":"","author":"エール出版社","authorKana":"エール シュッパンシャ","publisherName":"エール出版社","size":"単行本","isbn":"9784753932078","itemCaption":"合格を決めた科目別勉強法・参考書・問題集の賢い使い方・トクする受験情報がいっぱい。","salesDate":"2013年08月","itemPrice":1365,"listPrice":1365,"discountRate":0,"discountPrice":0,"itemUrl":"http://books.rakuten.co.jp/rb/12338271/","affiliateUrl":"","smallImageUrl":"http://thumbnail.image.rakuten.co.jp/@0_mall/book/cabinet/2078/9784753932078.jpg?_ex=64x64","mediumImageUrl":"http://thumbnail.image.rakuten.co.jp/@0_mall/book/cabinet/2078/9784753932078.jpg?_ex=120x120","largeImageUrl":"http://thumbnail.image.rakuten.co.jp/@0_mall/book/cabinet/2078/9784753932078.jpg?_ex=200x200","chirayomiUrl":"","availability":"1","postageFlag":0,"limitedFlag":0,"reviewCount":0,"reviewAverage":"0.0","booksGenreId":"001002006003/001008012002"}},{"Item":{"title":"未来へ伝える私の3．11（1）","titleKana":"ミライ エ ツタエル ワタクシ ノ サン ジュウイチ","subTitle":"語り継ぐ震災声の記録","subTitleKana":"カタリツグ シンサイ コエ ノ キロク","seriesName":"","seriesNameKana":"","contents":"洋野町　久慈市　田野畑村　宮古市　山田町　大槌町　釜石市","author":"ＩＢＣ岩手放送","authorKana":"アイビーシー イワテ ホウソウ","publisherName":"竹書房","size":"単行本","isbn":"9784812496206","itemCaption":"ＩＢＣラジオ「大塚富夫のＴＯＷＮ」（毎週土曜日１３：００〜１５：２０）にリスナーから寄せられた東日本大震災体験手記３１作を収録。あの日、私たちは何を見たのか。未来へ繋ぐ「３．１１」の記録。","salesDate":"2013年08月","itemPrice":1680,"listPrice":1680,"discountRate":0,"discountPrice":0,"itemUrl":"http://books.rakuten.co.jp/rb/12418508/","affiliateUrl":"","smallImageUrl":"http://thumbnail.image.rakuten.co.jp/@0_mall/book/cabinet/6206/9784812496206.jpg?_ex=64x64","mediumImageUrl":"http://thumbnail.image.rakuten.co.jp/@0_mall/book/cabinet/6206/9784812496206.jpg?_ex=120x120","largeImageUrl":"http://thumbnail.image.rakuten.co.jp/@0_mall/book/cabinet/6206/9784812496206.jpg?_ex=200x200","chirayomiUrl":"","availability":"1","postageFlag":1,"limitedFlag":0,"reviewCount":0,"reviewAverage":"0.0","booksGenreId":"001008012001"}},{"Item":{"title":"虐待・いじめ悲しみから希望へ","titleKana":"ギャクタイ イジメ カナシミ カラ キボウ エ","subTitle":"今、私たちにできること","subTitleKana":"イマ ワタクシタチ ニ デキル コト","seriesName":"","seriesNameKana":"","contents":"","author":"楠凡之","authorKana":"クスノキ,ヒロユキ","publisherName":"高文研","size":"単行本","isbn":"9784874985236","itemCaption":"親の暴力、両親間のＤＶ、過酷ないじめ…子どもたちの上に覆いかぶさる生きづらさと悲しみをどのように聴きとり、自己肯定感と希望を育んでいくのか。学生の手記を手がかりに、気鋭の臨床教育学者が読みひらく。","salesDate":"2013年08月","itemPrice":1680,"listPrice":1680,"discountRate":0,"discountPrice":0,"itemUrl":"http://books.rakuten.co.jp/rb/12407922/","affiliateUrl":"","smallImageUrl":"http://thumbnail.image.rakuten.co.jp/@0_mall/book/cabinet/5236/9784874985236.jpg?_ex=64x64","mediumImageUrl":"http://thumbnail.image.rakuten.co.jp/@0_mall/book/cabinet/5236/9784874985236.jpg?_ex=120x120","largeImageUrl":"http://thumbnail.image.rakuten.co.jp/@0_mall/book/cabinet/5236/9784874985236.jpg?_ex=200x200","chirayomiUrl":"","availability":"1","postageFlag":1,"limitedFlag":0,"reviewCount":0,"reviewAverage":"0.0","booksGenreId":"001008012001"}},{"Item":{"title":"それは私がしたことなのか","titleKana":"ソレ ワ ワタクシ ガ シタ コト ナノカ","subTitle":"行為の哲学入門","subTitleKana":"コウイ ノ テツガク ニュウモン","seriesName":"","seriesNameKana":"","contents":"","author":"古田徹也","authorKana":"フルタ,テツヤ","publisherName":"新曜社","size":"単行本","isbn":"9784788513440","itemCaption":"自然法則に支配され、運に翻弄されているかに見える人間。意のままにならないこの世界で、我々はどこまで自由なのか。「私」という不完全な行為者の意志、責任、倫理を問う。","salesDate":"2013年08月02日","itemPrice":2520,"listPrice":2520,"discountRate":0,"discountPrice":0,"itemUrl":"http://books.rakuten.co.jp/rb/12400725/","affiliateUrl":"","smallImageUrl":"http://thumbnail.image.rakuten.co.jp/@0_mall/book/cabinet/3440/9784788513440.jpg?_ex=64x64","mediumImageUrl":"http://thumbnail.image.rakuten.co.jp/@0_mall/book/cabinet/3440/9784788513440.jpg?_ex=120x120","largeImageUrl":"http://thumbnail.image.rakuten.co.jp/@0_mall/book/cabinet/3440/9784788513440.jpg?_ex=200x200","chirayomiUrl":"","availability":"1","postageFlag":1,"limitedFlag":0,"reviewCount":0,"reviewAverage":"0.0","booksGenreId":"001008004001"}}],"GenreInformation":[]}