{"count":3853,"page":1,"first":1,"last":30,"hits":30,"carrier":0,"pageCount":100,"Items":[{"Item":{"title":"絆回廊　新宿鮫10","titleKana":"キズナカイロウ　シンジュクザメジュウ","subTitle":"","subTitleKana":"","seriesName":"","seriesNameKana":"","contents":"","author":"大沢在昌","authorKana":"オオサワアリマサ","publisherName":"光文社","size":"新書","isbn":"9784334077181","itemCaption":"","salesDate":"2013年08月12日","itemPrice":1000,"listPrice":1000,"discountRate":0,"discountPrice":0,"itemUrl":"http://books.rakuten.co.jp/rb/12419907/","affiliateUrl":"","smallImageUrl":"http://thumbnail.image.rakuten.co.jp/@0_mall/book/cabinet/7181/9784334077181.jpg?_ex=64x64","mediumImageUrl":"http://thumbnail.image.rakuten.co.jp/@0_mall/book/cabinet/7181/9784334077181.jpg?_ex=120x120","largeImageUrl":"http://thumbnail.image.rakuten.co.jp/@0_mall/book/cabinet/7181/9784334077181.jpg?_ex=200x200","chirayomiUrl":"","availability":"5","postageFlag":0,"limitedFlag":0,"reviewCount":0,"reviewAverage":"0.0","booksGenreId":"001004008009/001008022008"}},{"Item":{"title":"幽霊恋文","titleKana":"ユウレイコイブミ","subTitle":"","subTitleKana":"","seriesName":"","seriesNameKana":"","contents":"","author":"赤川次郎","authorKana":"アカガワジロウ","publisherName":"文藝春秋","size":"新書","isbn":"9784163824307","itemCaption":"","salesDate":"2013年09月11日","itemPrice":890,"listPrice":890,"discountRate":0,"discountPrice":0,"itemUrl":"http://books.rakuten.co.jp/rb/12419909/","affiliateUrl":"","smallImageUrl":"http://thumbnail.image.rakuten.co.jp/@0_mall/book/cabinet/noimage_01.gif?_ex=64x64","mediumImageUrl":"http://thumbnail.image.rakuten.co.jp/@0_mall/book/cabinet/noimage_01.gif?_ex=120x120","largeImageUrl":"http://thumbnail.image.rakuten.co.jp/@0_mall/book/cabinet/noimage_01.gif?_ex=200x200","chirayomiUrl":"","availability":"5","postageFlag":0,"limitedFlag":0,"reviewCount":0,"reviewAverage":"0.0","booksGenreId":"001004008009/001008022008"}},{"Item":{"title":"（066-14）魔法屋ポプル　大魔王からのプロポーズ","titleKana":"マホウヤポプルダイマオウカラノプロポーズ","subTitle":"","subTitleKana":"","seriesName":"ポプラポケット文庫　児童文学・上級?","seriesNameKana":"ポプラポケットブンコジドウブンガクジョウキ","contents":"","author":"堀口勇太/玖珂つかさ","authorKana":"ホリグチユウタ/クガツカサ","publisherName":"ポプラ社","size":"新書","isbn":"9784591135785","itemCaption":"","salesDate":"2013年09月30日","itemPrice":683,"listPrice":683,"discountRate":0,"discountPrice":0,"itemUrl":"http://books.rakuten.co.jp/rb/12382309/","affiliateUrl":"","smallImageUrl":"http://thumbnail.image.rakuten.co.jp/@0_mall/book/cabinet/noimage_01.gif?_ex=64x64","mediumImageUrl":"http://thumbnail.image.rakuten.co.jp/@0_mall/book/cabinet/noimage_01.gif?_ex=120x120","largeImageUrl":"http://thumbnail.image.rakuten.co.jp/@0_mall/book/cabinet/noimage_01.gif?_ex=200x200","chirayomiUrl":"","availability":"5","postageFlag":0,"limitedFlag":0,"reviewCount":0,"reviewAverage":"0.0","booksGenreId":"001004008009/001008022008"}},{"Item":{"title":"（201-2）つかさの中学生日記　（2）友だちの作り方","titleKana":"ツカサノチュウガクセイニッキ2トモダチノツクリカタ","subTitle":"","subTitleKana":"","seriesName":"ポプラポケット文庫　ガールズ","seriesNameKana":"ポプラポケットブンコガールズ","contents":"","author":"宮下恵茉/カタノトモコ","authorKana":"ミヤシタエマ/カタノトモコ","publisherName":"ポプラ社","size":"新書","isbn":"9784591135808","itemCaption":"","salesDate":"2013年09月30日","itemPrice":651,"listPrice":651,"discountRate":0,"discountPrice":0,"itemUrl":"http://books.rakuten.co.jp/rb/12382311/","affiliateUrl":"","smallImageUrl":"http://thumbnail.image.rakuten.co.jp/@0_mall/book/cabinet/noimage_01.gif?_ex=64x64","mediumImageUrl":"http://thumbnail.image.rakuten.co.jp/@0_mall/book/cabinet/noimage_01.gif?_ex=120x120","largeImageUrl":"http://thumbnail.image.rakuten.co.jp/@0_mall/book/cabinet/noimage_01.gif?_ex=200x200","chirayomiUrl":"","availability":"5","postageFlag":0,"limitedFlag":0,"reviewCount":0,"reviewAverage":"0.0","booksGenreId":"001004008009/001008022008"}},{"Item":{"title":"いじめー過去へのエールー","titleKana":"イジメ カコヘノエール","subTitle":"","subTitleKana":"","seriesName":"ジュニア文庫","seriesNameKana":"ジュニアブンコ","contents":"","author":"武内昌美/五十嵐かおる","authorKana":"タケウチマサミ/イガラシカオル","publisherName":"小学館","size":"新書","isbn":"9784092307438","itemCaption":"","salesDate":"2013年08月21日","itemPrice":735,"listPrice":735,"discountRate":0,"discountPrice":0,"itemUrl":"http://books.rakuten.co.jp/rb/12419787/","affiliateUrl":"","smallImageUrl":"http://thumbnail.image.rakuten.co.jp/@0_mall/book/cabinet/noimage_01.gif?_ex=64x64","mediumImageUrl":"http://thumbnail.image.rakuten.co.jp/@0_mall/book/cabinet/noimage_01.gif?_ex=120x120","largeImageUrl":"http://thumbnail.image.rakuten.co.jp/@0_mall/book/cabinet/noimage_01.gif?_ex=200x200","chirayomiUrl":"","availability":"5","postageFlag":0,"limitedFlag":0,"reviewCount":0,"reviewAverage":"0.0","booksGenreId":"001004008009/001008022008"}},{"Item":{"title":"ASEAN連合艦隊2","titleKana":"アセアンレンゴウカンタイ2","subTitle":"","subTitleKana":"","seriesName":"歴史群像新書","seriesNameKana":"レキシグンゾウシンショ","contents":"","author":"高貫布人","authorKana":"タカヌキノブヒト","publisherName":"学研パブリッシング","size":"新書","isbn":"9784054058262","itemCaption":"","salesDate":"2013年09月24日","itemPrice":980,"listPrice":980,"discountRate":0,"discountPrice":0,"itemUrl":"http://books.rakuten.co.jp/rb/12426733/","affiliateUrl":"","smallImageUrl":"http://thumbnail.image.rakuten.co.jp/@0_mall/book/cabinet/noimage_01.gif?_ex=64x64","mediumImageUrl":"http://thumbnail.image.rakuten.co.jp/@0_mall/book/cabinet/noimage_01.gif?_ex=120x120","largeImageUrl":"http://thumbnail.image.rakuten.co.jp/@0_mall/book/cabinet/noimage_01.gif?_ex=200x200","chirayomiUrl":"","availability":"5","postageFlag":0,"limitedFlag":0,"reviewCount":0,"reviewAverage":"0.0","booksGenreId":"001004008009/001008022008"}},{"Item":{"title":"戦国の嵐5","titleKana":"センゴクノアラシ5","subTitle":"","subTitleKana":"","seriesName":"歴史群像新書","seriesNameKana":"レキシグンゾウシンショ","contents":"","author":"津野田幸作","authorKana":"ツノダコウサク","publisherName":"学研パブリッシング","size":"新書","isbn":"9784054058255","itemCaption":"","salesDate":"2013年09月24日","itemPrice":980,"listPrice":980,"discountRate":0,"discountPrice":0,"itemUrl":"http://books.rakuten.co.jp/rb/12426732/","affiliateUrl":"","smallImageUrl":"http://thumbnail.image.rakuten.co.jp/@0_mall/book/cabinet/noimage_01.gif?_ex=64x64","mediumImageUrl":"http://thumbnail.image.rakuten.co.jp/@0_mall/book/cabinet/noimage_01.gif?_ex=120x120","largeImageUrl":"http://thumbnail.image.rakuten.co.jp/@0_mall/book/cabinet/noimage_01.gif?_ex=200x200","chirayomiUrl":"","availability":"5","postageFlag":0,"limitedFlag":0,"reviewCount":0,"reviewAverage":"0.0","booksGenreId":"001004008009/001008022008"}},{"Item":{"title":"パスワード　渦巻き少女　-風浜電子探偵団事件ノート（28）「中学生編」-","titleKana":"パスワードウズマキガールカゼハマデンシタンテイダンジケンノート28チュウガクセイヘン","subTitle":"","subTitleKana":"","seriesName":"講談社青い鳥文庫","seriesNameKana":"","contents":"","author":"松原秀行/梶山直美","authorKana":"マツバラヒデユキ/カジヤマナオミ","publisherName":"講談社","size":"新書","isbn":"9784062853811","itemCaption":"","salesDate":"2013年09月13日","itemPrice":714,"listPrice":714,"discountRate":0,"discountPrice":0,"itemUrl":"http://books.rakuten.co.jp/rb/12411834/","affiliateUrl":"","smallImageUrl":"http://thumbnail.image.rakuten.co.jp/@0_mall/book/cabinet/noimage_01.gif?_ex=64x64","mediumImageUrl":"http://thumbnail.image.rakuten.co.jp/@0_mall/book/cabinet/noimage_01.gif?_ex=120x120","largeImageUrl":"http://thumbnail.image.rakuten.co.jp/@0_mall/book/cabinet/noimage_01.gif?_ex=200x200","chirayomiUrl":"","availability":"5","postageFlag":0,"limitedFlag":0,"reviewCount":0,"reviewAverage":"0.0","booksGenreId":"001003002002/001004008009/001008022008"}},{"Item":{"title":"覇　信長記　LastEpisode1","titleKana":"ハシンチョウキラストエピソード1","subTitle":"","subTitleKana":"","seriesName":"歴史群像新書","seriesNameKana":"レキシグンゾウシンショ","contents":"","author":"羅門祐人/中岡潤一郎","authorKana":"ラモンユウト/ナカオカジュンイチロウ","publisherName":"学研パブリッシング","size":"新書","isbn":"9784054058279","itemCaption":"","salesDate":"2013年09月24日","itemPrice":980,"listPrice":980,"discountRate":0,"discountPrice":0,"itemUrl":"http://books.rakuten.co.jp/rb/12426837/","affiliateUrl":"","smallImageUrl":"http://thumbnail.image.rakuten.co.jp/@0_mall/book/cabinet/noimage_01.gif?_ex=64x64","mediumImageUrl":"http://thumbnail.image.rakuten.co.jp/@0_mall/book/cabinet/noimage_01.gif?_ex=120x120","largeImageUrl":"http://thumbnail.image.rakuten.co.jp/@0_mall/book/cabinet/noimage_01.gif?_ex=200x200","chirayomiUrl":"","availability":"5","postageFlag":0,"limitedFlag":0,"reviewCount":0,"reviewAverage":"0.0","booksGenreId":"001004008009/001008022008"}},{"Item":{"title":"湖西線12×4の謎","titleKana":"コセイセン ジュウニ カケル シ ノ ナゾ","subTitle":"","subTitleKana":"","seriesName":"Ｔｏｋｕｍａ　ｎｏｖｅｌｓ","seriesNameKana":"トクマ ノベルズ","contents":"","author":"西村京太郎","authorKana":"ニシムラ,キョウタロウ","publisherName":"徳間書店","size":"新書","isbn":"9784198509347","itemCaption":"","salesDate":"2013年08月09日","itemPrice":900,"listPrice":900,"discountRate":0,"discountPrice":0,"itemUrl":"http://books.rakuten.co.jp/rb/12384596/","affiliateUrl":"","smallImageUrl":"http://thumbnail.image.rakuten.co.jp/@0_mall/book/cabinet/9347/9784198509347.jpg?_ex=64x64","mediumImageUrl":"http://thumbnail.image.rakuten.co.jp/@0_mall/book/cabinet/9347/9784198509347.jpg?_ex=120x120","largeImageUrl":"http://thumbnail.image.rakuten.co.jp/@0_mall/book/cabinet/9347/9784198509347.jpg?_ex=200x200","chirayomiUrl":"","availability":"5","postageFlag":0,"limitedFlag":0,"reviewCount":1,"reviewAverage":"5.0","booksGenreId":"001004008005"}},{"Item":{"title":"天下布武2","titleKana":"テンカフブ2","subTitle":"","subTitleKana":"","seriesName":"","seriesNameKana":"","contents":"","author":"竹中亮","authorKana":"タケナカリョウ","publisherName":"学研パブリッシング","size":"新書","isbn":"9784054057852","itemCaption":"","salesDate":"2013年09月24日","itemPrice":980,"listPrice":980,"discountRate":0,"discountPrice":0,"itemUrl":"http://books.rakuten.co.jp/rb/12386928/","affiliateUrl":"","smallImageUrl":"http://thumbnail.image.rakuten.co.jp/@0_mall/book/cabinet/noimage_01.gif?_ex=64x64","mediumImageUrl":"http://thumbnail.image.rakuten.co.jp/@0_mall/book/cabinet/noimage_01.gif?_ex=120x120","largeImageUrl":"http://thumbnail.image.rakuten.co.jp/@0_mall/book/cabinet/noimage_01.gif?_ex=200x200","chirayomiUrl":"","availability":"5","postageFlag":0,"limitedFlag":0,"reviewCount":0,"reviewAverage":"0.0","booksGenreId":"001004008009/001008022008"}},{"Item":{"title":"池魚の殃　鬼籍通覧","titleKana":"チギョノワザワイキセキツウラン","subTitle":"","subTitleKana":"","seriesName":"講談社ノベルス","seriesNameKana":"コウダンシヤノベルス","contents":"","author":"椹野道流","authorKana":"フシノミチル","publisherName":"講談社","size":"新書","isbn":"9784061827462","itemCaption":"","salesDate":"2013年11月07日","itemPrice":924,"listPrice":924,"discountRate":0,"discountPrice":0,"itemUrl":"http://books.rakuten.co.jp/rb/11943950/","affiliateUrl":"","smallImageUrl":"http://thumbnail.image.rakuten.co.jp/@0_mall/book/cabinet/noimage_01.gif?_ex=64x64","mediumImageUrl":"http://thumbnail.image.rakuten.co.jp/@0_mall/book/cabinet/noimage_01.gif?_ex=120x120","largeImageUrl":"http://thumbnail.image.rakuten.co.jp/@0_mall/book/cabinet/noimage_01.gif?_ex=200x200","chirayomiUrl":"","availability":"5","postageFlag":0,"limitedFlag":0,"reviewCount":1,"reviewAverage":"3.0","booksGenreId":"001004008009/001008022008"}},{"Item":{"title":"時空の旭日旗11","titleKana":"ジクウノキョクジツキ11","subTitle":"","subTitleKana":"","seriesName":"","seriesNameKana":"","contents":"","author":"安芸一穂","authorKana":"アキイチホ","publisherName":"学研パブリッシング","size":"新書","isbn":"9784054057845","itemCaption":"","salesDate":"2013年09月24日","itemPrice":980,"listPrice":980,"discountRate":0,"discountPrice":0,"itemUrl":"http://books.rakuten.co.jp/rb/12386927/","affiliateUrl":"","smallImageUrl":"http://thumbnail.image.rakuten.co.jp/@0_mall/book/cabinet/noimage_01.gif?_ex=64x64","mediumImageUrl":"http://thumbnail.image.rakuten.co.jp/@0_mall/book/cabinet/noimage_01.gif?_ex=120x120","largeImageUrl":"http://thumbnail.image.rakuten.co.jp/@0_mall/book/cabinet/noimage_01.gif?_ex=200x200","chirayomiUrl":"","availability":"5","postageFlag":0,"limitedFlag":0,"reviewCount":0,"reviewAverage":"0.0","booksGenreId":"001004008009/001008022008"}},{"Item":{"title":"日入国常闇碑伝","titleKana":"ヒイルクニトコヤミヒデン","subTitle":"","subTitleKana":"","seriesName":"講談社ノベルス","seriesNameKana":"","contents":"","author":"詠坂雄二","authorKana":"ヨミサカユウジ","publisherName":"講談社","size":"新書","isbn":"9784061828872","itemCaption":"","salesDate":"2013年09月05日","itemPrice":840,"listPrice":840,"discountRate":0,"discountPrice":0,"itemUrl":"http://books.rakuten.co.jp/rb/12411881/","affiliateUrl":"","smallImageUrl":"http://thumbnail.image.rakuten.co.jp/@0_mall/book/cabinet/noimage_01.gif?_ex=64x64","mediumImageUrl":"http://thumbnail.image.rakuten.co.jp/@0_mall/book/cabinet/noimage_01.gif?_ex=120x120","largeImageUrl":"http://thumbnail.image.rakuten.co.jp/@0_mall/book/cabinet/noimage_01.gif?_ex=200x200","chirayomiUrl":"","availability":"5","postageFlag":0,"limitedFlag":0,"reviewCount":0,"reviewAverage":"0.0","booksGenreId":"001004008009/001008022008"}},{"Item":{"title":"十津川警部　殺しのトライアングル","titleKana":"トツガワケイブコロシノトライアングル","subTitle":"","subTitleKana":"","seriesName":"トクマノベルズ","seriesNameKana":"トクマノベルズ","contents":"","author":"西村京太郎","authorKana":"ニシムラキョウタロウ","publisherName":"（株）徳間書店","size":"新書","isbn":"9784198509354","itemCaption":"","salesDate":"2013年09月11日","itemPrice":900,"listPrice":900,"discountRate":0,"discountPrice":0,"itemUrl":"http://books.rakuten.co.jp/rb/12419910/","affiliateUrl":"","smallImageUrl":"http://thumbnail.image.rakuten.co.jp/@0_mall/book/cabinet/noimage_01.gif?_ex=64x64","mediumImageUrl":"http://thumbnail.image.rakuten.co.jp/@0_mall/book/cabinet/noimage_01.gif?_ex=120x120","largeImageUrl":"http://thumbnail.image.rakuten.co.jp/@0_mall/book/cabinet/noimage_01.gif?_ex=200x200","chirayomiUrl":"","availability":"5","postageFlag":0,"limitedFlag":0,"reviewCount":0,"reviewAverage":"0.0","booksGenreId":"001004008009/001008022008"}},{"Item":{"title":"プリズム・ハーツ!! 9 v.s.怪盗!? 真夜中のミステリー","titleKana":"プリズム ハーツ/バーサス カイトウ マヨナカノミステリー","subTitle":"","subTitleKana":"","seriesName":"集英社みらい文庫","seriesNameKana":"シュウエイシャミライブンコ","contents":"","author":"あるや/神代明","authorKana":"アルヤ/カミシロアキラ","publisherName":"集英社","size":"新書","isbn":"9784083211713","itemCaption":"","salesDate":"2013年09月05日","itemPrice":630,"listPrice":630,"discountRate":0,"discountPrice":0,"itemUrl":"http://books.rakuten.co.jp/rb/12410464/","affiliateUrl":"","smallImageUrl":"http://thumbnail.image.rakuten.co.jp/@0_mall/book/cabinet/noimage_01.gif?_ex=64x64","mediumImageUrl":"http://thumbnail.image.rakuten.co.jp/@0_mall/book/cabinet/noimage_01.gif?_ex=120x120","largeImageUrl":"http://thumbnail.image.rakuten.co.jp/@0_mall/book/cabinet/noimage_01.gif?_ex=200x200","chirayomiUrl":"","availability":"5","postageFlag":0,"limitedFlag":0,"reviewCount":0,"reviewAverage":"0.0","booksGenreId":"001003002008/001004008009/001008022008"}},{"Item":{"title":"りなとなめこの探偵日記 消えたまなみとオルゴール!? の巻 おさわり探偵 小沢里奈","titleKana":"オサワリタンテイ オザワリナ/リナトナメコノタンテイニッキ/キエタマナミトオルゴール ノマキ","subTitle":"","subTitleKana":"","seriesName":"集英社みらい文庫","seriesNameKana":"シュウエイシャミライブンコ","contents":"","author":"河合真吾/(株)サクセス","authorKana":"カワイシンゴ/サクセス","publisherName":"集英社","size":"新書","isbn":"9784083211720","itemCaption":"","salesDate":"2013年09月05日","itemPrice":630,"listPrice":630,"discountRate":0,"discountPrice":0,"itemUrl":"http://books.rakuten.co.jp/rb/12410463/","affiliateUrl":"","smallImageUrl":"http://thumbnail.image.rakuten.co.jp/@0_mall/book/cabinet/noimage_01.gif?_ex=64x64","mediumImageUrl":"http://thumbnail.image.rakuten.co.jp/@0_mall/book/cabinet/noimage_01.gif?_ex=120x120","largeImageUrl":"http://thumbnail.image.rakuten.co.jp/@0_mall/book/cabinet/noimage_01.gif?_ex=200x200","chirayomiUrl":"","availability":"5","postageFlag":0,"limitedFlag":0,"reviewCount":0,"reviewAverage":"0.0","booksGenreId":"001003002008/001004008009/001008022008"}},{"Item":{"title":"大東亜の矛","titleKana":"ダイトウアノホコ","subTitle":"","subTitleKana":"","seriesName":"朝日ノベルズ","seriesNameKana":"","contents":"","author":"林譲治","authorKana":"ハヤシジョウジ","publisherName":"朝日新聞出版","size":"新書","isbn":"9784022760067","itemCaption":"","salesDate":"2013年08月20日","itemPrice":1050,"listPrice":1050,"discountRate":0,"discountPrice":0,"itemUrl":"http://books.rakuten.co.jp/rb/12419908/","affiliateUrl":"","smallImageUrl":"http://thumbnail.image.rakuten.co.jp/@0_mall/book/cabinet/noimage_01.gif?_ex=64x64","mediumImageUrl":"http://thumbnail.image.rakuten.co.jp/@0_mall/book/cabinet/noimage_01.gif?_ex=120x120","largeImageUrl":"http://thumbnail.image.rakuten.co.jp/@0_mall/book/cabinet/noimage_01.gif?_ex=200x200","chirayomiUrl":"","availability":"5","postageFlag":0,"limitedFlag":0,"reviewCount":0,"reviewAverage":"0.0","booksGenreId":"001004008009/001008022008/001017005005"}},{"Item":{"title":"君に届け 10 たいせつな気持ち","titleKana":"キミニトドケ/タイセツナキモチ","subTitle":"","subTitleKana":"","seriesName":"集英社みらい文庫","seriesNameKana":"シュウエイシャミライブンコ","contents":"","author":"椎名軽穂/白井かなこ","authorKana":"シイナカルホ/シライカナコ","publisherName":"集英社","size":"新書","isbn":"9784083211706","itemCaption":"","salesDate":"2013年09月05日","itemPrice":630,"listPrice":630,"discountRate":0,"discountPrice":0,"itemUrl":"http://books.rakuten.co.jp/rb/12410462/","affiliateUrl":"","smallImageUrl":"http://thumbnail.image.rakuten.co.jp/@0_mall/book/cabinet/noimage_01.gif?_ex=64x64","mediumImageUrl":"http://thumbnail.image.rakuten.co.jp/@0_mall/book/cabinet/noimage_01.gif?_ex=120x120","largeImageUrl":"http://thumbnail.image.rakuten.co.jp/@0_mall/book/cabinet/noimage_01.gif?_ex=200x200","chirayomiUrl":"","availability":"5","postageFlag":0,"limitedFlag":0,"reviewCount":0,"reviewAverage":"0.0","booksGenreId":"001003002008/001004008009/001008022008"}},{"Item":{"title":"マジカル少女レイナ2 (9) 神秘のアクセサリー","titleKana":"マジカルショウジョレイナニマイナスキュウ シンピノアクセサリマイナス","subTitle":"","subTitleKana":"","seriesName":"フォア文庫","seriesNameKana":"","contents":"","author":"石崎洋司/栗原一実","authorKana":"イシザキヒロシ/クリハラカズミ","publisherName":"岩崎書店","size":"新書","isbn":"9784265064687","itemCaption":"","salesDate":"2013年09月03日","itemPrice":630,"listPrice":630,"discountRate":0,"discountPrice":0,"itemUrl":"http://books.rakuten.co.jp/rb/12382308/","affiliateUrl":"","smallImageUrl":"http://thumbnail.image.rakuten.co.jp/@0_mall/book/cabinet/4687/9784265064687.jpg?_ex=64x64","mediumImageUrl":"http://thumbnail.image.rakuten.co.jp/@0_mall/book/cabinet/4687/9784265064687.jpg?_ex=120x120","largeImageUrl":"http://thumbnail.image.rakuten.co.jp/@0_mall/book/cabinet/4687/9784265064687.jpg?_ex=200x200","chirayomiUrl":"","availability":"5","postageFlag":0,"limitedFlag":0,"reviewCount":0,"reviewAverage":"0.0","booksGenreId":"001003002005/001004008009/001008022008"}},{"Item":{"title":"（078-2）おしん","titleKana":"オシン","subTitle":"","subTitleKana":"","seriesName":"ポプラポケット文庫　児童文学・上級?","seriesNameKana":"ポプラポケットブンコジドウブンガクジョウキ","contents":"","author":"橋田壽賀子/越水利江子","authorKana":"ハシダスガコ/コシミズリエコ","publisherName":"ポプラ社","size":"新書","isbn":"9784591135792","itemCaption":"","salesDate":"2013年09月30日","itemPrice":683,"listPrice":683,"discountRate":0,"discountPrice":0,"itemUrl":"http://books.rakuten.co.jp/rb/12382310/","affiliateUrl":"","smallImageUrl":"http://thumbnail.image.rakuten.co.jp/@0_mall/book/cabinet/noimage_01.gif?_ex=64x64","mediumImageUrl":"http://thumbnail.image.rakuten.co.jp/@0_mall/book/cabinet/noimage_01.gif?_ex=120x120","largeImageUrl":"http://thumbnail.image.rakuten.co.jp/@0_mall/book/cabinet/noimage_01.gif?_ex=200x200","chirayomiUrl":"","availability":"5","postageFlag":0,"limitedFlag":0,"reviewCount":0,"reviewAverage":"0.0","booksGenreId":"001004008009/001008022008"}},{"Item":{"title":"紙の眼","titleKana":"カミノメ","subTitle":"","subTitleKana":"","seriesName":"講談社ノベルス","seriesNameKana":"コウダンシヤノベルス","contents":"","author":"大山尚利","authorKana":"オオヤマナオトシ","publisherName":"講談社","size":"新書","isbn":"9784061828957","itemCaption":"","salesDate":"2013年09月05日","itemPrice":945,"listPrice":945,"discountRate":0,"discountPrice":0,"itemUrl":"http://books.rakuten.co.jp/rb/12429307/","affiliateUrl":"","smallImageUrl":"http://thumbnail.image.rakuten.co.jp/@0_mall/book/cabinet/noimage_01.gif?_ex=64x64","mediumImageUrl":"http://thumbnail.image.rakuten.co.jp/@0_mall/book/cabinet/noimage_01.gif?_ex=120x120","largeImageUrl":"http://thumbnail.image.rakuten.co.jp/@0_mall/book/cabinet/noimage_01.gif?_ex=200x200","chirayomiUrl":"","availability":"5","postageFlag":0,"limitedFlag":0,"reviewCount":0,"reviewAverage":"0.0","booksGenreId":"001004008009/001008022008"}},{"Item":{"title":"QED　〜flumen〜　ホームズの真実","titleKana":"キューイーディーQEDフリューメンホームズノシンジツFLUMEN","subTitle":"","subTitleKana":"","seriesName":"講談社ノベルス","seriesNameKana":"コウダンシヤノベルス","contents":"","author":"高田崇史","authorKana":"タカダタカフミ","publisherName":"講談社","size":"新書","isbn":"9784061828940","itemCaption":"","salesDate":"2013年09月05日","itemPrice":945,"listPrice":945,"discountRate":0,"discountPrice":0,"itemUrl":"http://books.rakuten.co.jp/rb/12429306/","affiliateUrl":"","smallImageUrl":"http://thumbnail.image.rakuten.co.jp/@0_mall/book/cabinet/noimage_01.gif?_ex=64x64","mediumImageUrl":"http://thumbnail.image.rakuten.co.jp/@0_mall/book/cabinet/noimage_01.gif?_ex=120x120","largeImageUrl":"http://thumbnail.image.rakuten.co.jp/@0_mall/book/cabinet/noimage_01.gif?_ex=200x200","chirayomiUrl":"","availability":"5","postageFlag":0,"limitedFlag":0,"reviewCount":0,"reviewAverage":"0.0","booksGenreId":"001004008009/001008022008"}},{"Item":{"title":"新装版　清少納言は名探偵！！-タイムスリップ探偵団と春はあけぼの大暴れの巻ー","titleKana":"シンソウバン セイショウナゴンハメイタンテイタイムスリップタンテイダントハルハアケボノオオアバレノマキ","subTitle":"","subTitleKana":"","seriesName":"講談社青い鳥文庫","seriesNameKana":"","contents":"","author":"楠木誠一郎/岩崎美奈子","authorKana":"クスノキセイイチロウ/イワサキミナコ","publisherName":"講談社","size":"新書","isbn":"9784062853804","itemCaption":"","salesDate":"2013年09月13日","itemPrice":609,"listPrice":609,"discountRate":0,"discountPrice":0,"itemUrl":"http://books.rakuten.co.jp/rb/12411833/","affiliateUrl":"","smallImageUrl":"http://thumbnail.image.rakuten.co.jp/@0_mall/book/cabinet/noimage_01.gif?_ex=64x64","mediumImageUrl":"http://thumbnail.image.rakuten.co.jp/@0_mall/book/cabinet/noimage_01.gif?_ex=120x120","largeImageUrl":"http://thumbnail.image.rakuten.co.jp/@0_mall/book/cabinet/noimage_01.gif?_ex=200x200","chirayomiUrl":"","availability":"5","postageFlag":0,"limitedFlag":0,"reviewCount":0,"reviewAverage":"0.0","booksGenreId":"001003002002/001004008009/001008022008"}},{"Item":{"title":"クレセント・コッペリア　人形たちの教室","titleKana":"クレセントコッペリアニンギョウタチノキョウシツ","subTitle":"","subTitleKana":"","seriesName":"ポプラカラフル文庫","seriesNameKana":"ポプラカラフルブンコ","contents":"","author":"相原礼以奈/くまの柚子","authorKana":"アイハラレイナ/クマノユズコ","publisherName":"ポプラ社","size":"新書","isbn":"9784591135778","itemCaption":"","salesDate":"2013年09月30日","itemPrice":830,"listPrice":830,"discountRate":0,"discountPrice":0,"itemUrl":"http://books.rakuten.co.jp/rb/12384582/","affiliateUrl":"","smallImageUrl":"http://thumbnail.image.rakuten.co.jp/@0_mall/book/cabinet/noimage_01.gif?_ex=64x64","mediumImageUrl":"http://thumbnail.image.rakuten.co.jp/@0_mall/book/cabinet/noimage_01.gif?_ex=120x120","largeImageUrl":"http://thumbnail.image.rakuten.co.jp/@0_mall/book/cabinet/noimage_01.gif?_ex=200x200","chirayomiUrl":"","availability":"5","postageFlag":0,"limitedFlag":0,"reviewCount":0,"reviewAverage":"0.0","booksGenreId":"001004008009/001008022008"}},{"Item":{"title":"新装版　おっことチョコの魔界ツアー","titleKana":"シンソウバンオッコトチョコノマカイツアー","subTitle":"","subTitleKana":"","seriesName":"講談社青い鳥文庫","seriesNameKana":"","contents":"","author":"令丈ヒロ子/石崎洋司","authorKana":"レイジョウヒロコ/イシザキヒロシ","publisherName":"講談社","size":"新書","isbn":"9784062853798","itemCaption":"","salesDate":"2013年09月13日","itemPrice":609,"listPrice":609,"discountRate":0,"discountPrice":0,"itemUrl":"http://books.rakuten.co.jp/rb/12411832/","affiliateUrl":"","smallImageUrl":"http://thumbnail.image.rakuten.co.jp/@0_mall/book/cabinet/noimage_01.gif?_ex=64x64","mediumImageUrl":"http://thumbnail.image.rakuten.co.jp/@0_mall/book/cabinet/noimage_01.gif?_ex=120x120","largeImageUrl":"http://thumbnail.image.rakuten.co.jp/@0_mall/book/cabinet/noimage_01.gif?_ex=200x200","chirayomiUrl":"","availability":"5","postageFlag":0,"limitedFlag":0,"reviewCount":0,"reviewAverage":"0.0","booksGenreId":"001003002002/001004008009/001008022008"}},{"Item":{"title":"八王子七色面妖館密室不可能殺人","titleKana":"ハチオウジナナイロメンヨウカンミッシツフカノウサツジン","subTitle":"","subTitleKana":"","seriesName":"講談社ノベルス","seriesNameKana":"","contents":"","author":"倉阪鬼一郎","authorKana":"クラサカキイチロウ","publisherName":"講談社","size":"新書","isbn":"9784061828896","itemCaption":"","salesDate":"2013年09月05日","itemPrice":840,"listPrice":840,"discountRate":0,"discountPrice":0,"itemUrl":"http://books.rakuten.co.jp/rb/12411882/","affiliateUrl":"","smallImageUrl":"http://thumbnail.image.rakuten.co.jp/@0_mall/book/cabinet/noimage_01.gif?_ex=64x64","mediumImageUrl":"http://thumbnail.image.rakuten.co.jp/@0_mall/book/cabinet/noimage_01.gif?_ex=120x120","largeImageUrl":"http://thumbnail.image.rakuten.co.jp/@0_mall/book/cabinet/noimage_01.gif?_ex=200x200","chirayomiUrl":"","availability":"5","postageFlag":0,"limitedFlag":0,"reviewCount":0,"reviewAverage":"0.0","booksGenreId":"001004008009/001008022008"}},{"Item":{"title":"死美女の誘惑　蓮飯店あやかし事件簿","titleKana":"シビジョノユウワクレンハンテンアヤカシジケンボ","subTitle":"","subTitleKana":"","seriesName":"講談社ノベルス","seriesNameKana":"","contents":"","author":"丸山天寿","authorKana":"マルヤマテンジュ","publisherName":"講談社","size":"新書","isbn":"9784061828124","itemCaption":"","salesDate":"2013年09月05日","itemPrice":966,"listPrice":966,"discountRate":0,"discountPrice":0,"itemUrl":"http://books.rakuten.co.jp/rb/12411880/","affiliateUrl":"","smallImageUrl":"http://thumbnail.image.rakuten.co.jp/@0_mall/book/cabinet/noimage_01.gif?_ex=64x64","mediumImageUrl":"http://thumbnail.image.rakuten.co.jp/@0_mall/book/cabinet/noimage_01.gif?_ex=120x120","largeImageUrl":"http://thumbnail.image.rakuten.co.jp/@0_mall/book/cabinet/noimage_01.gif?_ex=200x200","chirayomiUrl":"","availability":"5","postageFlag":0,"limitedFlag":0,"reviewCount":0,"reviewAverage":"0.0","booksGenreId":"001004008009/001008022008"}},{"Item":{"title":"戦略遊撃艦隊出撃ス！","titleKana":"センリャクユウゲキカンタイシュツゲキス","subTitle":"","subTitleKana":"","seriesName":"","seriesNameKana":"","contents":"","author":"小佐一成","authorKana":"コサカズナリ","publisherName":"学研パブリッシング","size":"新書","isbn":"9784054058002","itemCaption":"","salesDate":"2013年08月27日","itemPrice":990,"listPrice":990,"discountRate":0,"discountPrice":0,"itemUrl":"http://books.rakuten.co.jp/rb/12386929/","affiliateUrl":"","smallImageUrl":"http://thumbnail.image.rakuten.co.jp/@0_mall/book/cabinet/noimage_01.gif?_ex=64x64","mediumImageUrl":"http://thumbnail.image.rakuten.co.jp/@0_mall/book/cabinet/noimage_01.gif?_ex=120x120","largeImageUrl":"http://thumbnail.image.rakuten.co.jp/@0_mall/book/cabinet/noimage_01.gif?_ex=200x200","chirayomiUrl":"","availability":"5","postageFlag":0,"limitedFlag":0,"reviewCount":0,"reviewAverage":"0.0","booksGenreId":"001004008009/001008022008"}},{"Item":{"title":"さくらゆき","titleKana":"サクラ ユキ","subTitle":"桜井京介ｒｅｔｕｒｎｓ","subTitleKana":"サクライ キョウスケ リターンズ","seriesName":"講談社ノベルス","seriesNameKana":"コウダンシャ ノベルス","contents":"","author":"篠田真由美","authorKana":"シノダ,マユミ","publisherName":"講談社","size":"新書","isbn":"9784061828841","itemCaption":"","salesDate":"2013年08月07日","itemPrice":945,"listPrice":945,"discountRate":0,"discountPrice":0,"itemUrl":"http://books.rakuten.co.jp/rb/12375687/","affiliateUrl":"","smallImageUrl":"http://thumbnail.image.rakuten.co.jp/@0_mall/book/cabinet/8841/9784061828841.jpg?_ex=64x64","mediumImageUrl":"http://thumbnail.image.rakuten.co.jp/@0_mall/book/cabinet/8841/9784061828841.jpg?_ex=120x120","largeImageUrl":"http://thumbnail.image.rakuten.co.jp/@0_mall/book/cabinet/8841/9784061828841.jpg?_ex=200x200","chirayomiUrl":"","availability":"1","postageFlag":0,"limitedFlag":0,"reviewCount":1,"reviewAverage":"3.0","booksGenreId":"001004008003"}}],"GenreInformation":[]}